{
    "DISCLAIMER": "USER-NOTICE: The results in this file were produced with the PMP v1.1 (https://github.com/PCMDI/pcmdi_metrics). They are for research purposes only. They are subject to ongoing quality control and change as the PMP software advances, interpolation methods are modified, observational data sets are updated, problems with model data are corrected, etc. Use of these results for research (presentation, publications, etc.) should reference: Gleckler, P. J., C. Doutriaux, P. J. Durack, K. E. Taylor, Y. Zhang, and D. N. Williams, E. Mason, and J. Servonnat (2016), A more powerful reality test for climate models, Eos, 97, doi:10.1029/2016EO051663. If any problems are uncovered in using these results please contact the PMP development team at pcmdi-metrics@llnl.gov\n",
    "RESULTS": {},
    "Variable": {
        "id": "psl"
    },
    "References": {
        "default": {
            "RefName": "ERAINT",
            "MD5sum": "ecc0ac7ded5ef4a42a9733d57783e3bd",
            "period": "",
            "filename": "psl_ERAINT_000001-000012_ac.nc",
            "shape": "(12, 121, 240)",
            "CMIP_CMOR_TABLE": "ERAINT",
            "RefTrackingDate": "Tue Jul 12 17:28:38 2011"
        }
    },
    "RegionalMasking": {
        "20S20N": {
            "domain": {
                "20S20N": "cdutil.region.domain(latitude=(-20.0, 20, 'ccb'))"
            },
            "id": "20S20N",
            "value": null
        },
        "land": {
            "id": "land",
            "value": 100
        },
        "50N90N": {
            "domain": {
                "50N90N": "cdutil.region.domain(latitude=(50.0, 90, 'ccb'))"
            },
            "id": "50N90N",
            "value": null
        },
        "TROPICS": {
            "domain": {
                "TROPICS": "cdutil.region.domain(latitude=(-30.0, 30, 'ccb'))"
            },
            "id": "TROPICS"
        },
        "global": {
            "id": "global"
        },
        "50S20S": {
            "domain": {
                "50S20S": "cdutil.region.domain(latitude=(-50.0, -20, 'ccb'))"
            },
            "id": "50S20S",
            "value": null
        },
        "90S50S": {
            "domain": {
                "90S50S": "cdutil.region.domain(latitude=(-90.0, -50, 'ccb'))"
            },
            "id": "90S50S",
            "value": null
        },
        "ocean": {
            "id": "ocean",
            "value": 0
        },
        "20N50N": {
            "domain": {
                "20N50N": "cdutil.region.domain(latitude=(20.0, 50, 'ccb'))"
            },
            "id": "20N50N",
            "value": null
        },
        "NHEX": {
            "domain": {
                "NHEX": "cdutil.region.domain(latitude=(30.0, 90, 'ccb'))"
            },
            "id": "NHEX"
        },
        "SHEX": {
            "domain": {
                "SHEX": "cdutil.region.domain(latitude=(-90.0, -30, 'ccb'))"
            },
            "id": "SHEX"
        }
    },
    "GridInfo": {
        "GridResolution": [
            16,
            144
        ],
        "GridName": "2.5x2.5",
        "RegridMethod": "regrid2",
        "RegridTool": "regrid2"
    },
    "METRICS": {},
    "metrics_git_sha1": "b952bf37c72c3a2d0b27319daffd9f38e301c29f",
    "uvcdat_version": "v2.5.0-572-ga06818f"
}