{
    "DISCLAIMER": "USER-NOTICE: The results in this file were produced with the PMP v1.1 (https://github.com/PCMDI/pcmdi_metrics). They are for research purposes only. They are subject to ongoing quality control and change as the PMP software advances, interpolation methods are modified, observational data sets are updated, problems with model data are corrected, etc. Use of these results for research (presentation, publications, etc.) should reference: Gleckler, P. J., C. Doutriaux, P. J. Durack, K. E. Taylor, Y. Zhang, and D. N. Williams, E. Mason, and J. Servonnat (2016), A more powerful reality test for climate models, Eos, 97, doi:10.1029/2016EO051663. If any problems are uncovered in using these results please contact the PMP development team at pcmdi-metrics@llnl.gov\n",
    "RESULTS": {
        "DECKv1b_H5_1981-2005": {
            "SimulationDescription": {
                "ModellingGroup": "N/A",
                "ModelFreeSpace": "N/A",
                "MIPTable": "CERES",
                "creation_date": "N/A",
                "ModelActivity": "N/A",
                "Experiment": "N/A",
                "Realization": "r1i1p1",
                "Model": "DECKv1b_H5_1981-2005"
            },
            "defaultReference": {
                "source": "CERES",
                "r1i1p1": {
                    "20S20N": {
                        "bias_xy_ann": "-5.246",
                        "bias_xy_djf": "-6.066",
                        "bias_xy_jja": "-4.600",
                        "bias_xy_mam": "-4.182",
                        "bias_xy_son": "-5.815",
                        "cor_xy_ann": "0.881",
                        "cor_xy_djf": "0.97",
                        "cor_xy_jja": "0.96",
                        "cor_xy_mam": "0.92",
                        "cor_xy_son": "0.89",
                        "mae_xy_ann": "9.076",
                        "mae_xy_djf": "10.518",
                        "mae_xy_jja": "10.577",
                        "mae_xy_mam": "8.703",
                        "mae_xy_son": "10.100",
                        "rms_devzm_ann": "8.996",
                        "rms_xy_ann": "10.962",
                        "rms_xy_djf": "13.071",
                        "rms_xy_jja": "13.981",
                        "rms_xy_mam": "11.254",
                        "rms_xy_son": "12.742",
                        "rms_xyt_ann": "13.648",
                        "rms_y_ann": "6.065",
                        "std-obs_xy_ann": "19.910",
                        "std-obs_xy_devzm_ann": "15.677",
                        "std-obs_xy_djf": "45.655",
                        "std-obs_xy_jja": "46.500",
                        "std-obs_xy_mam": "25.983",
                        "std-obs_xy_son": "24.985",
                        "std-obs_xyt_ann": "42.409",
                        "std_xy_ann": "15.485",
                        "std_xy_devzm_ann": "12.265",
                        "std_xy_djf": "48.600",
                        "std_xy_jja": "45.900",
                        "std_xy_mam": "21.084",
                        "std_xy_son": "21.830",
                        "std_xyt_ann": "42.054"
                    },
                    "land": {
                        "bias_xy_ann": "1.850",
                        "bias_xy_djf": "0.343",
                        "bias_xy_jja": "4.001",
                        "bias_xy_mam": "0.467",
                        "bias_xy_son": "2.464",
                        "cor_xy_ann": "0.986",
                        "cor_xy_djf": "0.99",
                        "cor_xy_jja": "0.98",
                        "cor_xy_mam": "0.98",
                        "cor_xy_son": "0.99",
                        "mae_xy_ann": "6.689",
                        "mae_xy_djf": "8.257",
                        "mae_xy_jja": "11.703",
                        "mae_xy_mam": "9.543",
                        "mae_xy_son": "6.512",
                        "rms_devzm_ann": "7.314",
                        "rms_xy_ann": "9.137",
                        "rms_xy_djf": "11.517",
                        "rms_xy_jja": "14.695",
                        "rms_xy_mam": "12.740",
                        "rms_xy_son": "8.931",
                        "rms_xyt_ann": "13.308",
                        "rms_y_ann": "6.482",
                        "std-obs_xy_ann": "50.846",
                        "std-obs_xy_devzm_ann": "12.960",
                        "std-obs_xy_djf": "89.010",
                        "std-obs_xy_jja": "62.728",
                        "std-obs_xy_mam": "58.652",
                        "std-obs_xy_son": "71.747",
                        "std-obs_xyt_ann": "79.276",
                        "std_xy_ann": "52.503",
                        "std_xy_devzm_ann": "11.937",
                        "std_xy_djf": "91.876",
                        "std_xy_jja": "67.390",
                        "std_xy_mam": "59.734",
                        "std_xy_son": "73.080",
                        "std_xyt_ann": "82.197"
                    },
                    "50N90N": {
                        "bias_xy_ann": "-2.456",
                        "bias_xy_djf": "0.720",
                        "bias_xy_jja": "-5.807",
                        "bias_xy_mam": "-6.555",
                        "bias_xy_son": "1.096",
                        "cor_xy_ann": "0.976",
                        "cor_xy_djf": "0.98",
                        "cor_xy_jja": "0.88",
                        "cor_xy_mam": "0.96",
                        "cor_xy_son": "0.99",
                        "mae_xy_ann": "4.898",
                        "mae_xy_djf": "3.204",
                        "mae_xy_jja": "15.374",
                        "mae_xy_mam": "9.842",
                        "mae_xy_son": "3.079",
                        "rms_devzm_ann": "5.532",
                        "rms_xy_ann": "6.188",
                        "rms_xy_djf": "3.942",
                        "rms_xy_jja": "18.202",
                        "rms_xy_mam": "13.676",
                        "rms_xy_son": "3.822",
                        "rms_xyt_ann": "13.221",
                        "rms_y_ann": "2.977",
                        "std-obs_xy_ann": "25.411",
                        "std-obs_xy_devzm_ann": "7.355",
                        "std-obs_xy_djf": "15.850",
                        "std-obs_xy_jja": "28.272",
                        "std-obs_xy_mam": "40.862",
                        "std-obs_xy_son": "26.555",
                        "std-obs_xyt_ann": "85.361",
                        "std_xy_ann": "26.127",
                        "std_xy_devzm_ann": "7.779",
                        "std_xy_djf": "13.350",
                        "std_xy_jja": "35.956",
                        "std_xy_mam": "36.776",
                        "std_xy_son": "25.841",
                        "std_xyt_ann": "82.503"
                    },
                    "TROPICS": {
                        "bias_xy_ann": "-2.263",
                        "bias_xy_djf": "-2.976",
                        "bias_xy_jja": "-1.504",
                        "bias_xy_mam": "-1.552",
                        "bias_xy_son": "-2.733",
                        "cor_xy_ann": "0.928",
                        "cor_xy_djf": "0.98",
                        "cor_xy_jja": "0.97",
                        "cor_xy_mam": "0.95",
                        "cor_xy_son": "0.94",
                        "mae_xy_ann": "8.529",
                        "mae_xy_djf": "9.966",
                        "mae_xy_jja": "9.743",
                        "mae_xy_mam": "8.681",
                        "mae_xy_son": "9.364",
                        "rms_devzm_ann": "9.154",
                        "rms_xy_ann": "10.798",
                        "rms_xy_djf": "12.502",
                        "rms_xy_jja": "13.899",
                        "rms_xy_mam": "11.489",
                        "rms_xy_son": "12.268",
                        "rms_xyt_ann": "13.396",
                        "rms_y_ann": "5.617",
                        "std-obs_xy_ann": "26.113",
                        "std-obs_xy_devzm_ann": "17.120",
                        "std-obs_xy_djf": "61.473",
                        "std-obs_xy_jja": "58.737",
                        "std-obs_xy_mam": "35.791",
                        "std-obs_xy_son": "35.699",
                        "std-obs_xyt_ann": "54.662",
                        "std_xy_ann": "20.091",
                        "std_xy_devzm_ann": "13.575",
                        "std_xy_djf": "63.918",
                        "std_xy_jja": "58.365",
                        "std_xy_mam": "30.873",
                        "std_xy_son": "31.824",
                        "std_xyt_ann": "54.223"
                    },
                    "global": {
                        "bias_xy_ann": "-0.693",
                        "bias_xy_djf": "0.319",
                        "bias_xy_jja": "-0.475",
                        "bias_xy_mam": "-1.739",
                        "bias_xy_son": "-0.775",
                        "cor_xy_ann": "0.988",
                        "cor_xy_djf": "0.99",
                        "cor_xy_jja": "0.99",
                        "cor_xy_mam": "0.99",
                        "cor_xy_son": "0.99",
                        "mae_xy_ann": "6.678",
                        "mae_xy_djf": "8.925",
                        "mae_xy_jja": "9.225",
                        "mae_xy_mam": "7.518",
                        "mae_xy_son": "7.239",
                        "rms_devzm_ann": "7.609",
                        "rms_xy_ann": "8.890",
                        "rms_xy_djf": "11.887",
                        "rms_xy_jja": "13.338",
                        "rms_xy_mam": "10.599",
                        "rms_xy_son": "9.922",
                        "rms_xyt_ann": "12.534",
                        "rms_y_ann": "4.269",
                        "std-obs_xy_ann": "56.022",
                        "std-obs_xy_devzm_ann": "13.445",
                        "std-obs_xy_djf": "94.707",
                        "std-obs_xy_jja": "86.362",
                        "std-obs_xy_mam": "72.476",
                        "std-obs_xy_son": "73.260",
                        "std-obs_xyt_ann": "87.102",
                        "std_xy_ann": "53.799",
                        "std_xy_devzm_ann": "11.307",
                        "std_xy_djf": "96.532",
                        "std_xy_jja": "87.530",
                        "std_xy_mam": "70.470",
                        "std_xy_son": "71.228",
                        "std_xyt_ann": "87.490"
                    },
                    "50S20S": {
                        "bias_xy_ann": "2.653",
                        "bias_xy_djf": "7.766",
                        "bias_xy_jja": "-0.394",
                        "bias_xy_mam": "1.008",
                        "bias_xy_son": "2.787",
                        "cor_xy_ann": "0.969",
                        "cor_xy_djf": "0.91",
                        "cor_xy_jja": "0.98",
                        "cor_xy_mam": "0.99",
                        "cor_xy_son": "0.92",
                        "mae_xy_ann": "4.556",
                        "mae_xy_djf": "8.867",
                        "mae_xy_jja": "3.549",
                        "mae_xy_mam": "3.704",
                        "mae_xy_son": "6.684",
                        "rms_devzm_ann": "6.004",
                        "rms_xy_ann": "6.902",
                        "rms_xy_djf": "11.142",
                        "rms_xy_jja": "5.543",
                        "rms_xy_mam": "6.157",
                        "rms_xy_son": "9.542",
                        "rms_xyt_ann": "9.107",
                        "rms_y_ann": "3.166",
                        "std-obs_xy_ann": "23.881",
                        "std-obs_xy_devzm_ann": "9.133",
                        "std-obs_xy_djf": "18.007",
                        "std-obs_xy_jja": "29.148",
                        "std-obs_xy_mam": "33.460",
                        "std-obs_xy_son": "20.553",
                        "std-obs_xyt_ann": "86.447",
                        "std_xy_ann": "25.483",
                        "std_xy_devzm_ann": "8.679",
                        "std_xy_djf": "19.765",
                        "std_xy_jja": "30.490",
                        "std_xy_mam": "34.953",
                        "std_xy_son": "23.118",
                        "std_xyt_ann": "90.217"
                    },
                    "90S50S": {
                        "bias_xy_ann": "3.436",
                        "bias_xy_djf": "12.006",
                        "bias_xy_jja": "-0.619",
                        "bias_xy_mam": "2.775",
                        "bias_xy_son": "-0.141",
                        "cor_xy_ann": "0.975",
                        "cor_xy_djf": "0.96",
                        "cor_xy_jja": "0.97",
                        "cor_xy_mam": "0.98",
                        "cor_xy_son": "0.98",
                        "mae_xy_ann": "4.727",
                        "mae_xy_djf": "13.018",
                        "mae_xy_jja": "3.172",
                        "mae_xy_mam": "3.896",
                        "mae_xy_son": "5.893",
                        "rms_devzm_ann": "3.845",
                        "rms_xy_ann": "6.093",
                        "rms_xy_djf": "17.156",
                        "rms_xy_jja": "4.271",
                        "rms_xy_mam": "4.587",
                        "rms_xy_son": "7.971",
                        "rms_xyt_ann": "10.946",
                        "rms_y_ann": "4.407",
                        "std-obs_xy_ann": "22.855",
                        "std-obs_xy_devzm_ann": "7.946",
                        "std-obs_xy_djf": "43.186",
                        "std-obs_xy_jja": "16.623",
                        "std-obs_xy_mam": "17.782",
                        "std-obs_xy_son": "37.258",
                        "std-obs_xyt_ann": "81.875",
                        "std_xy_ann": "22.138",
                        "std_xy_devzm_ann": "7.281",
                        "std_xy_djf": "41.831",
                        "std_xy_jja": "15.133",
                        "std_xy_mam": "16.850",
                        "std_xy_son": "37.020",
                        "std_xyt_ann": "85.582"
                    },
                    "ocean": {
                        "bias_xy_ann": "-1.714",
                        "bias_xy_djf": "0.300",
                        "bias_xy_jja": "-2.245",
                        "bias_xy_mam": "-2.636",
                        "bias_xy_son": "-2.082",
                        "cor_xy_ann": "0.989",
                        "cor_xy_djf": "0.99",
                        "cor_xy_jja": "0.99",
                        "cor_xy_mam": "0.99",
                        "cor_xy_son": "0.99",
                        "mae_xy_ann": "6.746",
                        "mae_xy_djf": "9.269",
                        "mae_xy_jja": "8.312",
                        "mae_xy_mam": "6.824",
                        "mae_xy_son": "7.592",
                        "rms_devzm_ann": "7.087",
                        "rms_xy_ann": "8.916",
                        "rms_xy_djf": "12.195",
                        "rms_xy_jja": "12.949",
                        "rms_xy_mam": "9.839",
                        "rms_xy_son": "10.395",
                        "rms_xyt_ann": "12.393",
                        "rms_y_ann": "4.645",
                        "std-obs_xy_ann": "56.334",
                        "std-obs_xy_devzm_ann": "8.868",
                        "std-obs_xy_djf": "88.769",
                        "std-obs_xy_jja": "93.371",
                        "std-obs_xy_mam": "77.341",
                        "std-obs_xy_son": "68.900",
                        "std-obs_xyt_ann": "89.004",
                        "std_xy_ann": "52.994",
                        "std_xy_devzm_ann": "8.211",
                        "std_xy_djf": "90.364",
                        "std_xy_jja": "93.055",
                        "std_xy_mam": "74.339",
                        "std_xy_son": "66.166",
                        "std_xyt_ann": "88.731"
                    },
                    "20N50N": {
                        "bias_xy_ann": "2.000",
                        "bias_xy_djf": "-3.495",
                        "bias_xy_jja": "9.121",
                        "bias_xy_mam": "-0.376",
                        "bias_xy_son": "2.412",
                        "cor_xy_ann": "0.936",
                        "cor_xy_djf": "0.96",
                        "cor_xy_jja": "0.88",
                        "cor_xy_mam": "0.87",
                        "cor_xy_son": "0.97",
                        "mae_xy_ann": "6.990",
                        "mae_xy_djf": "7.311",
                        "mae_xy_jja": "12.665",
                        "mae_xy_mam": "10.135",
                        "mae_xy_son": "6.215",
                        "rms_devzm_ann": "9.022",
                        "rms_xy_ann": "9.466",
                        "rms_xy_djf": "9.782",
                        "rms_xy_jja": "17.327",
                        "rms_xy_mam": "13.148",
                        "rms_xy_son": "8.262",
                        "rms_xyt_ann": "13.964",
                        "rms_y_ann": "2.666",
                        "std-obs_xy_ann": "26.022",
                        "std-obs_xy_devzm_ann": "17.551",
                        "std-obs_xy_djf": "30.755",
                        "std-obs_xy_jja": "30.300",
                        "std-obs_xy_mam": "24.180",
                        "std-obs_xy_son": "32.749",
                        "std-obs_xyt_ann": "73.615",
                        "std_xy_ann": "25.637",
                        "std_xy_devzm_ann": "14.912",
                        "std_xy_djf": "31.497",
                        "std_xy_jja": "27.954",
                        "std_xy_mam": "26.026",
                        "std_xy_son": "31.949",
                        "std_xyt_ann": "77.487"
                    },
                    "NHEX": {
                        "bias_xy_ann": "-0.714",
                        "bias_xy_djf": "-2.286",
                        "bias_xy_jja": "2.236",
                        "bias_xy_mam": "-4.959",
                        "bias_xy_son": "1.587",
                        "cor_xy_ann": "0.986",
                        "cor_xy_djf": "0.99",
                        "cor_xy_jja": "0.92",
                        "cor_xy_mam": "0.97",
                        "cor_xy_son": "0.99",
                        "mae_xy_ann": "5.372",
                        "mae_xy_djf": "4.992",
                        "mae_xy_jja": "14.420",
                        "mae_xy_mam": "9.433",
                        "mae_xy_son": "4.264",
                        "rms_devzm_ann": "6.816",
                        "rms_xy_ann": "7.173",
                        "rms_xy_djf": "7.178",
                        "rms_xy_jja": "17.583",
                        "rms_xy_mam": "12.941",
                        "rms_xy_son": "5.699",
                        "rms_xyt_ann": "13.383",
                        "rms_y_ann": "2.595",
                        "std-obs_xy_ann": "40.356",
                        "std-obs_xy_devzm_ann": "9.239",
                        "std-obs_xy_djf": "36.927",
                        "std-obs_xy_jja": "34.621",
                        "std-obs_xy_mam": "51.569",
                        "std-obs_xy_son": "46.261",
                        "std-obs_xyt_ann": "87.784",
                        "std_xy_ann": "42.116",
                        "std_xy_devzm_ann": "9.075",
                        "std_xy_djf": "33.616",
                        "std_xy_jja": "42.636",
                        "std_xy_mam": "52.283",
                        "std_xy_son": "46.532",
                        "std_xyt_ann": "89.254"
                    },
                    "SHEX": {
                        "bias_xy_ann": "2.467",
                        "bias_xy_djf": "9.515",
                        "bias_xy_jja": "-1.127",
                        "bias_xy_mam": "1.108",
                        "bias_xy_son": "0.779",
                        "cor_xy_ann": "0.992",
                        "cor_xy_djf": "0.98",
                        "cor_xy_jja": "0.99",
                        "cor_xy_mam": "1.00",
                        "cor_xy_son": "0.99",
                        "mae_xy_ann": "4.282",
                        "mae_xy_djf": "10.777",
                        "mae_xy_jja": "2.993",
                        "mae_xy_mam": "3.276",
                        "mae_xy_son": "5.964",
                        "rms_devzm_ann": "4.186",
                        "rms_xy_ann": "5.607",
                        "rms_xy_djf": "14.178",
                        "rms_xy_jja": "4.009",
                        "rms_xy_mam": "4.236",
                        "rms_xy_son": "7.763",
                        "rms_xyt_ann": "9.506",
                        "rms_y_ann": "4.017",
                        "std-obs_xy_ann": "41.149",
                        "std-obs_xy_devzm_ann": "7.176",
                        "std-obs_xy_djf": "50.798",
                        "std-obs_xy_jja": "29.555",
                        "std-obs_xy_mam": "40.827",
                        "std-obs_xy_son": "52.851",
                        "std-obs_xyt_ann": "93.791",
                        "std_xy_ann": "40.796",
                        "std_xy_devzm_ann": "7.775",
                        "std_xy_djf": "49.212",
                        "std_xy_jja": "28.966",
                        "std_xy_mam": "39.664",
                        "std_xy_son": "54.346",
                        "std_xyt_ann": "97.159"
                    }
                }
            },
            "InputRegionMD5": null,
            "InputClimatologyFileName": "rt.nc",
            "units": "N/A",
            "InputClimatologyMD5": "4ab8a63f879795562e907efb8308831b",
            "InputRegionFileName": null
        }
    },
    "Variable": {
        "id": "rt"
    },
    "References": {
        "default": {
            "RefName": "CERES",
            "MD5sum": "4f816a24e38db99f26835c4c97b7e0b3",
            "period": "",
            "filename": "rt_CERES_000001-000012_ac.nc",
            "shape": "(12, 180, 360)",
            "CMIP_CMOR_TABLE": "CERES",
            "RefTrackingDate": "Wed Aug 31 17:45:45 2016"
        }
    },
    "RegionalMasking": {
        "20S20N": {
            "domain": {
                "20S20N": "cdutil.region.domain(latitude=(-20.0, 20, 'ccb'))"
            },
            "id": "20S20N",
            "value": null
        },
        "land": {
            "id": "land",
            "value": 100
        },
        "50N90N": {
            "domain": {
                "50N90N": "cdutil.region.domain(latitude=(50.0, 90, 'ccb'))"
            },
            "id": "50N90N",
            "value": null
        },
        "TROPICS": {
            "domain": {
                "TROPICS": "cdutil.region.domain(latitude=(-30.0, 30, 'ccb'))"
            },
            "id": "TROPICS"
        },
        "global": {
            "id": "global"
        },
        "50S20S": {
            "domain": {
                "50S20S": "cdutil.region.domain(latitude=(-50.0, -20, 'ccb'))"
            },
            "id": "50S20S",
            "value": null
        },
        "90S50S": {
            "domain": {
                "90S50S": "cdutil.region.domain(latitude=(-90.0, -50, 'ccb'))"
            },
            "id": "90S50S",
            "value": null
        },
        "ocean": {
            "id": "ocean",
            "value": 0
        },
        "20N50N": {
            "domain": {
                "20N50N": "cdutil.region.domain(latitude=(20.0, 50, 'ccb'))"
            },
            "id": "20N50N",
            "value": null
        },
        "NHEX": {
            "domain": {
                "NHEX": "cdutil.region.domain(latitude=(30.0, 90, 'ccb'))"
            },
            "id": "NHEX"
        },
        "SHEX": {
            "domain": {
                "SHEX": "cdutil.region.domain(latitude=(-90.0, -30, 'ccb'))"
            },
            "id": "SHEX"
        }
    },
    "GridInfo": {
        "GridResolution": [
            16,
            144
        ],
        "GridName": "2.5x2.5",
        "RegridMethod": "regrid2",
        "RegridTool": "regrid2"
    },
    "METRICS": {
        "rms_xyt": {
            "Abstract": "Compute Spatial and Temporal Root Mean Square",
            "Contact": "pcmdi-metrics@llnl.gov",
            "Name": "Spatio-Temporal Root Mean Square",
            "URI": "http://uvcdat.llnl.gov/documentation/utilities/utilities-2.html"
        },
        "rms_xy": {
            "Abstract": "Compute Spatial Root Mean Square",
            "Contact": "pcmdi-metrics@llnl.gov",
            "Name": "Spatial Root Mean Square",
            "URI": "http://uvcdat.llnl.gov/documentation/utilities/utilities-2.html"
        },
        "bias_xy": {
            "Abstract": "Compute Full Average of Model - Observation",
            "Contact": "pcmdi-metrics@llnl.gov",
            "Name": "Bias"
        },
        "mae_xy": {
            "Abstract": "Compute Full Average of Absolute Difference Between Model And Observation",
            "Contact": "pcmdi-metrics@llnl.gov",
            "Name": "Mean Absolute Error"
        },
        "cor_xy": {
            "Abstract": "Compute Spatial Correlation",
            "Contact": "pcmdi-metrics@llnl.gov",
            "Name": "Spatial Correlation",
            "URI": "http://uvcdat.llnl.gov/documentation/utilities/utilities-2.html"
        },
        "std_xy": {
            "Abstract": "Compute Spatial Standard Deviation",
            "Contact": "pcmdi-metrics@llnl.gov",
            "Name": "Spatial Standard Deviation",
            "URI": "http://uvcdat.llnl.gov/documentation/utilities/utilities-2.html"
        },
        "std_xyt": {
            "Abstract": "Compute Space-Time Standard Deviation",
            "Contact": "pcmdi-metrics@llnl.gov",
            "Name": "Spatial-temporal Standard Deviation",
            "URI": "http://uvcdat.llnl.gov/documentation/utilities/utilities-2.html"
        },
        "seasonal_mean": {
            "Abstract": "Compute Seasonal Mean",
            "Contact": "pcmdi-metrics@llnl.gov",
            "Name": "Seasonal Mean",
            "Comments": "Assumes input are 12 months climatology"
        },
        "annual_mean": {
            "Abstract": "Compute Annual Mean",
            "Contact": "pcmdi-metrics@llnl.gov",
            "Name": "Annual Mean",
            "Comments": "Assumes input are 12 months climatology",
            "URI": "http://uvcdat.llnl.gov/documentation/utilities/utilities-2.html"
        },
        "zonal_mean": {
            "Abstract": "Compute Zonal Mean",
            "Contact": "pcmdi-metrics@llnl.gov",
            "Name": "Zonal Mean",
            "Comments": "",
            "URI": "http://uvcdat.llnl.gov/documentation/utilities/utilities-2.html"
        }
    },
    "metrics_git_sha1": "b952bf37c72c3a2d0b27319daffd9f38e301c29f",
    "uvcdat_version": "v2.5.0-572-ga06818f"
}