{
    "DISCLAIMER": "USER-NOTICE: The results in this file were produced with the PMP v1.1 (https://github.com/PCMDI/pcmdi_metrics). They are for research purposes only. They are subject to ongoing quality control and change as the PMP software advances, interpolation methods are modified, observational data sets are updated, problems with model data are corrected, etc. Use of these results for research (presentation, publications, etc.) should reference: Gleckler, P. J., C. Doutriaux, P. J. Durack, K. E. Taylor, Y. Zhang, and D. N. Williams, E. Mason, and J. Servonnat (2016), A more powerful reality test for climate models, Eos, 97, doi:10.1029/2016EO051663. If any problems are uncovered in using these results please contact the PMP development team at pcmdi-metrics@llnl.gov\n",
    "RESULTS": {
        "DECKv1b_H5_1981-2005": {
            "SimulationDescription": {
                "ModellingGroup": "N/A",
                "ModelFreeSpace": "N/A",
                "MIPTable": "ERAINT",
                "creation_date": "N/A",
                "ModelActivity": "N/A",
                "Experiment": "N/A",
                "Realization": "r1i1p1",
                "Model": "DECKv1b_H5_1981-2005"
            },
            "defaultReference": {
                "source": "ERAINT",
                "r1i1p1": {
                    "20S20N": {
                        "bias_xy_ann": "-2.521",
                        "bias_xy_djf": "-2.633",
                        "bias_xy_jja": "-2.474",
                        "bias_xy_mam": "-2.735",
                        "bias_xy_son": "-2.250",
                        "cor_xy_ann": "0.961",
                        "cor_xy_djf": "0.97",
                        "cor_xy_jja": "0.94",
                        "cor_xy_mam": "0.87",
                        "cor_xy_son": "0.96",
                        "mae_xy_ann": "2.521",
                        "mae_xy_djf": "2.633",
                        "mae_xy_jja": "2.474",
                        "mae_xy_mam": "2.735",
                        "mae_xy_son": "2.250",
                        "rms_devzm_ann": "0.180",
                        "rms_xy_ann": "2.528",
                        "rms_xy_djf": "2.641",
                        "rms_xy_jja": "2.500",
                        "rms_xy_mam": "2.750",
                        "rms_xy_son": "2.261",
                        "rms_xyt_ann": "2.561",
                        "rms_y_ann": "2.533",
                        "std-obs_xy_ann": "0.584",
                        "std-obs_xy_devzm_ann": "0.569",
                        "std-obs_xy_djf": "0.789",
                        "std-obs_xy_jja": "0.838",
                        "std-obs_xy_mam": "0.600",
                        "std-obs_xy_son": "0.566",
                        "std-obs_xyt_ann": "0.774",
                        "std_xy_ann": "0.656",
                        "std_xy_devzm_ann": "0.646",
                        "std_xy_djf": "0.869",
                        "std_xy_jja": "1.011",
                        "std_xy_mam": "0.493",
                        "std_xy_son": "0.703",
                        "std_xyt_ann": "0.859"
                    },
                    "50N90N": {
                        "bias_xy_ann": "2.968",
                        "bias_xy_djf": "5.875",
                        "bias_xy_jja": "-0.093",
                        "bias_xy_mam": "3.364",
                        "bias_xy_son": "2.789",
                        "cor_xy_ann": "0.829",
                        "cor_xy_djf": "0.93",
                        "cor_xy_jja": "0.90",
                        "cor_xy_mam": "0.67",
                        "cor_xy_son": "0.89",
                        "mae_xy_ann": "2.968",
                        "mae_xy_djf": "5.875",
                        "mae_xy_jja": "1.158",
                        "mae_xy_mam": "3.364",
                        "mae_xy_son": "2.789",
                        "rms_devzm_ann": "1.079",
                        "rms_xy_ann": "3.174",
                        "rms_xy_djf": "6.054",
                        "rms_xy_jja": "1.388",
                        "rms_xy_mam": "3.741",
                        "rms_xy_son": "2.994",
                        "rms_xyt_ann": "4.103",
                        "rms_y_ann": "2.801",
                        "std-obs_xy_ann": "1.989",
                        "std-obs_xy_devzm_ann": "1.814",
                        "std-obs_xy_djf": "3.700",
                        "std-obs_xy_jja": "3.084",
                        "std-obs_xy_mam": "2.140",
                        "std-obs_xy_son": "2.077",
                        "std-obs_xyt_ann": "4.535",
                        "std_xy_ann": "1.824",
                        "std_xy_devzm_ann": "1.662",
                        "std_xy_djf": "2.886",
                        "std_xy_jja": "3.175",
                        "std_xy_mam": "1.873",
                        "std_xy_son": "2.345",
                        "std_xyt_ann": "3.192"
                    },
                    "TROPICS": {
                        "bias_xy_ann": "-2.529",
                        "bias_xy_djf": "-2.569",
                        "bias_xy_jja": "-2.577",
                        "bias_xy_mam": "-2.665",
                        "bias_xy_son": "-2.312",
                        "cor_xy_ann": "0.962",
                        "cor_xy_djf": "0.95",
                        "cor_xy_jja": "0.95",
                        "cor_xy_mam": "0.92",
                        "cor_xy_son": "0.96",
                        "mae_xy_ann": "2.529",
                        "mae_xy_djf": "2.569",
                        "mae_xy_jja": "2.577",
                        "mae_xy_mam": "2.665",
                        "mae_xy_son": "2.312",
                        "rms_devzm_ann": "0.253",
                        "rms_xy_ann": "2.545",
                        "rms_xy_djf": "2.596",
                        "rms_xy_jja": "2.631",
                        "rms_xy_mam": "2.711",
                        "rms_xy_son": "2.334",
                        "rms_xyt_ann": "2.604",
                        "rms_y_ann": "2.530",
                        "std-obs_xy_ann": "0.986",
                        "std-obs_xy_devzm_ann": "0.923",
                        "std-obs_xy_djf": "1.102",
                        "std-obs_xy_jja": "1.483",
                        "std-obs_xy_mam": "1.177",
                        "std-obs_xy_son": "0.955",
                        "std-obs_xyt_ann": "1.281",
                        "std_xy_ann": "1.035",
                        "std_xy_devzm_ann": "0.980",
                        "std_xy_djf": "1.231",
                        "std_xy_jja": "1.680",
                        "std_xy_mam": "0.919",
                        "std_xy_son": "1.091",
                        "std_xyt_ann": "1.392"
                    },
                    "global": {
                        "bias_xy_ann": "-1.348",
                        "bias_xy_djf": "-0.729",
                        "bias_xy_jja": "-2.107",
                        "bias_xy_mam": "-1.151",
                        "bias_xy_son": "-1.402",
                        "cor_xy_ann": "0.729",
                        "cor_xy_djf": "0.46",
                        "cor_xy_jja": "0.97",
                        "cor_xy_mam": "0.58",
                        "cor_xy_son": "0.89",
                        "mae_xy_ann": "2.239",
                        "mae_xy_djf": "2.709",
                        "mae_xy_jja": "2.249",
                        "mae_xy_mam": "2.353",
                        "mae_xy_son": "2.168",
                        "rms_devzm_ann": "0.634",
                        "rms_xy_ann": "2.388",
                        "rms_xy_djf": "3.195",
                        "rms_xy_jja": "2.425",
                        "rms_xy_mam": "2.601",
                        "rms_xy_son": "2.283",
                        "rms_xyt_ann": "2.771",
                        "rms_y_ann": "2.274",
                        "std-obs_xy_ann": "2.028",
                        "std-obs_xy_devzm_ann": "1.242",
                        "std-obs_xy_djf": "3.011",
                        "std-obs_xy_jja": "4.898",
                        "std-obs_xy_mam": "2.025",
                        "std-obs_xy_son": "3.379",
                        "std-obs_xyt_ann": "3.768",
                        "std_xy_ann": "2.876",
                        "std_xy_devzm_ann": "1.394",
                        "std_xy_djf": "2.996",
                        "std_xy_jja": "5.031",
                        "std_xy_mam": "2.840",
                        "std_xy_son": "3.920",
                        "std_xyt_ann": "4.139"
                    },
                    "50S20S": {
                        "bias_xy_ann": "-1.946",
                        "bias_xy_djf": "-1.466",
                        "bias_xy_jja": "-2.344",
                        "bias_xy_mam": "-1.765",
                        "bias_xy_son": "-2.206",
                        "cor_xy_ann": "0.908",
                        "cor_xy_djf": "0.85",
                        "cor_xy_jja": "0.93",
                        "cor_xy_mam": "0.91",
                        "cor_xy_son": "0.93",
                        "mae_xy_ann": "1.946",
                        "mae_xy_djf": "1.494",
                        "mae_xy_jja": "2.344",
                        "mae_xy_mam": "1.765",
                        "mae_xy_son": "2.206",
                        "rms_devzm_ann": "0.411",
                        "rms_xy_ann": "2.030",
                        "rms_xy_djf": "1.678",
                        "rms_xy_jja": "2.482",
                        "rms_xy_mam": "1.888",
                        "rms_xy_son": "2.275",
                        "rms_xyt_ann": "2.180",
                        "rms_y_ann": "1.983",
                        "std-obs_xy_ann": "1.358",
                        "std-obs_xy_devzm_ann": "1.073",
                        "std-obs_xy_djf": "1.437",
                        "std-obs_xy_jja": "2.179",
                        "std-obs_xy_mam": "1.548",
                        "std-obs_xy_son": "1.323",
                        "std-obs_xyt_ann": "1.870",
                        "std_xy_ann": "1.346",
                        "std_xy_devzm_ann": "1.240",
                        "std_xy_djf": "1.534",
                        "std_xy_jja": "2.214",
                        "std_xy_mam": "1.205",
                        "std_xy_son": "1.525",
                        "std_xyt_ann": "2.047"
                    },
                    "90S50S": {
                        "bias_xy_ann": "-1.536",
                        "bias_xy_djf": "-1.706",
                        "bias_xy_jja": "-1.435",
                        "bias_xy_mam": "-1.407",
                        "bias_xy_son": "-1.641",
                        "cor_xy_ann": "0.984",
                        "cor_xy_djf": "0.66",
                        "cor_xy_jja": "0.99",
                        "cor_xy_mam": "0.82",
                        "cor_xy_son": "1.00",
                        "mae_xy_ann": "1.536",
                        "mae_xy_djf": "1.817",
                        "mae_xy_jja": "1.451",
                        "mae_xy_mam": "1.443",
                        "mae_xy_son": "1.641",
                        "rms_devzm_ann": "0.399",
                        "rms_xy_ann": "1.637",
                        "rms_xy_djf": "2.169",
                        "rms_xy_jja": "1.579",
                        "rms_xy_mam": "1.657",
                        "rms_xy_son": "1.698",
                        "rms_xyt_ann": "1.973",
                        "rms_y_ann": "1.710",
                        "std-obs_xy_ann": "2.657",
                        "std-obs_xy_devzm_ann": "1.263",
                        "std-obs_xy_djf": "1.722",
                        "std-obs_xy_jja": "4.716",
                        "std-obs_xy_mam": "1.485",
                        "std-obs_xy_son": "5.937",
                        "std-obs_xyt_ann": "8.025",
                        "std_xy_ann": "2.927",
                        "std_xy_devzm_ann": "1.115",
                        "std_xy_djf": "1.476",
                        "std_xy_jja": "4.542",
                        "std_xy_mam": "1.437",
                        "std_xy_son": "5.937",
                        "std_xyt_ann": "7.949"
                    },
                    "20N50N": {
                        "bias_xy_ann": "-1.133",
                        "bias_xy_djf": "-0.028",
                        "bias_xy_jja": "-2.761",
                        "bias_xy_mam": "-0.332",
                        "bias_xy_son": "-1.409",
                        "cor_xy_ann": "0.618",
                        "cor_xy_djf": "0.54",
                        "cor_xy_jja": "0.92",
                        "cor_xy_mam": "0.44",
                        "cor_xy_son": "0.68",
                        "mae_xy_ann": "2.063",
                        "mae_xy_djf": "2.792",
                        "mae_xy_jja": "2.833",
                        "mae_xy_mam": "2.272",
                        "mae_xy_son": "1.947",
                        "rms_devzm_ann": "0.972",
                        "rms_xy_ann": "2.328",
                        "rms_xy_djf": "3.357",
                        "rms_xy_jja": "3.008",
                        "rms_xy_mam": "2.628",
                        "rms_xy_son": "2.152",
                        "rms_xyt_ann": "3.073",
                        "rms_y_ann": "2.122",
                        "std-obs_xy_ann": "1.847",
                        "std-obs_xy_devzm_ann": "1.704",
                        "std-obs_xy_djf": "2.751",
                        "std-obs_xy_jja": "2.805",
                        "std-obs_xy_mam": "2.032",
                        "std-obs_xy_son": "1.815",
                        "std-obs_xyt_ann": "2.845",
                        "std_xy_ann": "2.565",
                        "std_xy_devzm_ann": "2.180",
                        "std_xy_djf": "3.908",
                        "std_xy_jja": "3.119",
                        "std_xy_mam": "2.744",
                        "std_xy_son": "2.152",
                        "std_xyt_ann": "3.403"
                    },
                    "NHEX": {
                        "bias_xy_ann": "1.298",
                        "bias_xy_djf": "3.586",
                        "bias_xy_jja": "-1.416",
                        "bias_xy_mam": "2.153",
                        "bias_xy_son": "0.900",
                        "cor_xy_ann": "0.783",
                        "cor_xy_djf": "0.60",
                        "cor_xy_jja": "0.92",
                        "cor_xy_mam": "0.84",
                        "cor_xy_son": "0.80",
                        "mae_xy_ann": "2.269",
                        "mae_xy_djf": "4.256",
                        "mae_xy_jja": "1.976",
                        "mae_xy_mam": "2.640",
                        "mae_xy_son": "2.166",
                        "rms_devzm_ann": "1.145",
                        "rms_xy_ann": "2.623",
                        "rms_xy_djf": "4.927",
                        "rms_xy_jja": "2.335",
                        "rms_xy_mam": "3.134",
                        "rms_xy_son": "2.469",
                        "rms_xyt_ann": "3.632",
                        "rms_y_ann": "2.471",
                        "std-obs_xy_ann": "2.119",
                        "std-obs_xy_devzm_ann": "1.799",
                        "std-obs_xy_djf": "3.576",
                        "std-obs_xy_jja": "3.558",
                        "std-obs_xy_mam": "2.748",
                        "std-obs_xy_son": "2.149",
                        "std-obs_xyt_ann": "3.932",
                        "std_xy_ann": "3.519",
                        "std_xy_devzm_ann": "2.148",
                        "std_xy_djf": "3.930",
                        "std_xy_jja": "4.522",
                        "std_xy_mam": "4.047",
                        "std_xy_son": "3.632",
                        "std_xyt_ann": "4.347"
                    },
                    "SHEX": {
                        "bias_xy_ann": "-1.629",
                        "bias_xy_djf": "-1.367",
                        "bias_xy_jja": "-1.860",
                        "bias_xy_mam": "-1.426",
                        "bias_xy_son": "-1.882",
                        "cor_xy_ann": "0.971",
                        "cor_xy_djf": "0.94",
                        "cor_xy_jja": "0.99",
                        "cor_xy_mam": "0.93",
                        "cor_xy_son": "0.99",
                        "mae_xy_ann": "1.629",
                        "mae_xy_djf": "1.443",
                        "mae_xy_jja": "1.867",
                        "mae_xy_mam": "1.444",
                        "mae_xy_son": "1.882",
                        "rms_devzm_ann": "0.410",
                        "rms_xy_ann": "1.722",
                        "rms_xy_djf": "1.756",
                        "rms_xy_jja": "2.053",
                        "rms_xy_mam": "1.595",
                        "rms_xy_son": "1.965",
                        "rms_xyt_ann": "1.991",
                        "rms_y_ann": "1.753",
                        "std-obs_xy_ann": "2.127",
                        "std-obs_xy_devzm_ann": "1.107",
                        "std-obs_xy_djf": "3.344",
                        "std-obs_xy_jja": "5.713",
                        "std-obs_xy_mam": "1.951",
                        "std-obs_xy_son": "5.264",
                        "std-obs_xyt_ann": "5.705",
                        "std_xy_ann": "2.289",
                        "std_xy_devzm_ann": "1.116",
                        "std_xy_djf": "3.075",
                        "std_xy_jja": "5.313",
                        "std_xy_mam": "1.944",
                        "std_xy_son": "5.165",
                        "std_xyt_ann": "5.696"
                    }
                }
            },
            "InputRegionMD5": null,
            "InputClimatologyFileName": "ta.nc",
            "units": "N/A",
            "InputClimatologyMD5": "90ed02c8984e56714221ecd56fed0c98",
            "InputRegionFileName": null
        }
    },
    "Variable": {
        "id": "ta",
        "level": 20000.0
    },
    "References": {
        "default": {
            "RefName": "ERAINT",
            "MD5sum": "9036381da7020e5edff322435d1e0dba",
            "period": "",
            "filename": "ta_ERAINT_000001-000012_ac.nc",
            "shape": "(12, 17, 121, 240)",
            "CMIP_CMOR_TABLE": "ERAINT",
            "RefTrackingDate": "Tue Jul 12 18:06:41 2011"
        }
    },
    "RegionalMasking": {
        "20S20N": {
            "domain": {
                "20S20N": "cdutil.region.domain(latitude=(-20.0, 20, 'ccb'))"
            },
            "id": "20S20N",
            "value": null
        },
        "50N90N": {
            "domain": {
                "50N90N": "cdutil.region.domain(latitude=(50.0, 90, 'ccb'))"
            },
            "id": "50N90N",
            "value": null
        },
        "TROPICS": {
            "domain": {
                "TROPICS": "cdutil.region.domain(latitude=(-30.0, 30, 'ccb'))"
            },
            "id": "TROPICS"
        },
        "global": {
            "id": "global"
        },
        "50S20S": {
            "domain": {
                "50S20S": "cdutil.region.domain(latitude=(-50.0, -20, 'ccb'))"
            },
            "id": "50S20S",
            "value": null
        },
        "90S50S": {
            "domain": {
                "90S50S": "cdutil.region.domain(latitude=(-90.0, -50, 'ccb'))"
            },
            "id": "90S50S",
            "value": null
        },
        "20N50N": {
            "domain": {
                "20N50N": "cdutil.region.domain(latitude=(20.0, 50, 'ccb'))"
            },
            "id": "20N50N",
            "value": null
        },
        "NHEX": {
            "domain": {
                "NHEX": "cdutil.region.domain(latitude=(30.0, 90, 'ccb'))"
            },
            "id": "NHEX"
        },
        "SHEX": {
            "domain": {
                "SHEX": "cdutil.region.domain(latitude=(-90.0, -30, 'ccb'))"
            },
            "id": "SHEX"
        }
    },
    "GridInfo": {
        "GridResolution": [
            1,
            16,
            144
        ],
        "GridName": "2.5x2.5",
        "RegridMethod": "regrid2",
        "RegridTool": "regrid2"
    },
    "METRICS": {
        "rms_xyt": {
            "Abstract": "Compute Spatial and Temporal Root Mean Square",
            "Contact": "pcmdi-metrics@llnl.gov",
            "Name": "Spatio-Temporal Root Mean Square",
            "URI": "http://uvcdat.llnl.gov/documentation/utilities/utilities-2.html"
        },
        "rms_xy": {
            "Abstract": "Compute Spatial Root Mean Square",
            "Contact": "pcmdi-metrics@llnl.gov",
            "Name": "Spatial Root Mean Square",
            "URI": "http://uvcdat.llnl.gov/documentation/utilities/utilities-2.html"
        },
        "bias_xy": {
            "Abstract": "Compute Full Average of Model - Observation",
            "Contact": "pcmdi-metrics@llnl.gov",
            "Name": "Bias"
        },
        "mae_xy": {
            "Abstract": "Compute Full Average of Absolute Difference Between Model And Observation",
            "Contact": "pcmdi-metrics@llnl.gov",
            "Name": "Mean Absolute Error"
        },
        "cor_xy": {
            "Abstract": "Compute Spatial Correlation",
            "Contact": "pcmdi-metrics@llnl.gov",
            "Name": "Spatial Correlation",
            "URI": "http://uvcdat.llnl.gov/documentation/utilities/utilities-2.html"
        },
        "std_xy": {
            "Abstract": "Compute Spatial Standard Deviation",
            "Contact": "pcmdi-metrics@llnl.gov",
            "Name": "Spatial Standard Deviation",
            "URI": "http://uvcdat.llnl.gov/documentation/utilities/utilities-2.html"
        },
        "std_xyt": {
            "Abstract": "Compute Space-Time Standard Deviation",
            "Contact": "pcmdi-metrics@llnl.gov",
            "Name": "Spatial-temporal Standard Deviation",
            "URI": "http://uvcdat.llnl.gov/documentation/utilities/utilities-2.html"
        },
        "seasonal_mean": {
            "Abstract": "Compute Seasonal Mean",
            "Contact": "pcmdi-metrics@llnl.gov",
            "Name": "Seasonal Mean",
            "Comments": "Assumes input are 12 months climatology"
        },
        "annual_mean": {
            "Abstract": "Compute Annual Mean",
            "Contact": "pcmdi-metrics@llnl.gov",
            "Name": "Annual Mean",
            "Comments": "Assumes input are 12 months climatology",
            "URI": "http://uvcdat.llnl.gov/documentation/utilities/utilities-2.html"
        },
        "zonal_mean": {
            "Abstract": "Compute Zonal Mean",
            "Contact": "pcmdi-metrics@llnl.gov",
            "Name": "Zonal Mean",
            "Comments": "",
            "URI": "http://uvcdat.llnl.gov/documentation/utilities/utilities-2.html"
        }
    },
    "metrics_git_sha1": "b952bf37c72c3a2d0b27319daffd9f38e301c29f",
    "uvcdat_version": "v2.5.0-572-ga06818f"
}