 No mask for  /scratch/tang30/PMP/20180316.DECKv1b_A1.ne30_oEC.edison/1981-2005/data/DECKv1b_A1_1981-2005/sftlf.nc
 parameter file ref is:  ['default']
 ref is:  ['default']
 couldn't figure out obs mask name from obs json file
 REGION: {'domain': Selector(<cdutil.region.DomainComponent instance at 0x7f579493e560>), 'id': 'TROPICS'}
 OBS SHAPE IS  (12, 25, 144)
 pr   DECKv1b_A1_1981-2005   (12, 25, 144)   (12, 25, 144)    default
 couldn't figure out obs mask name from obs json file
 REGION: {'domain': Selector(<cdutil.region.DomainComponent instance at 0x7f5794932c68>), 'id': 'SHEX'}
 OBS SHAPE IS  (12, 25, 144)
 pr   DECKv1b_A1_1981-2005   (12, 25, 144)   (12, 25, 144)    default
 couldn't figure out obs mask name from obs json file
 REGION: {'domain': Selector(<cdutil.region.DomainComponent instance at 0x7f57949320e0>), 'id': 'NHEX'}
 OBS SHAPE IS  (12, 24, 144)
 pr   DECKv1b_A1_1981-2005   (12, 24, 144)   (12, 24, 144)    default
 couldn't figure out obs mask name from obs json file
 REGION: {'id': 'global'}
 OBS SHAPE IS  (12, 72, 144)
 pr   DECKv1b_A1_1981-2005   (12, 72, 144)   (12, 72, 144)    default
 couldn't figure out obs mask name from obs json file
 REGION: {'domain': Selector(<cdutil.region.DomainComponent instance at 0x7f579490cbd8>), 'id': '90S50S', 'value': None}
 OBS SHAPE IS  (12, 17, 144)
 pr   DECKv1b_A1_1981-2005   (12, 17, 144)   (12, 17, 144)    default
 couldn't figure out obs mask name from obs json file
 REGION: {'domain': Selector(<cdutil.region.DomainComponent instance at 0x7f579490ce60>), 'id': '50S20S', 'value': None}
 OBS SHAPE IS  (12, 13, 144)
 pr   DECKv1b_A1_1981-2005   (12, 13, 144)   (12, 13, 144)    default
 couldn't figure out obs mask name from obs json file
 REGION: {'domain': Selector(<cdutil.region.DomainComponent instance at 0x7f5794914128>), 'id': '20S20N', 'value': None}
 OBS SHAPE IS  (12, 17, 144)
 pr   DECKv1b_A1_1981-2005   (12, 17, 144)   (12, 17, 144)    default
 couldn't figure out obs mask name from obs json file
 REGION: {'domain': Selector(<cdutil.region.DomainComponent instance at 0x7f57949143b0>), 'id': '20N50N', 'value': None}
 OBS SHAPE IS  (12, 13, 144)
 pr   DECKv1b_A1_1981-2005   (12, 13, 144)   (12, 13, 144)    default
 couldn't figure out obs mask name from obs json file
 REGION: {'domain': Selector(<cdutil.region.DomainComponent instance at 0x7f5794914638>), 'id': '50N90N', 'value': None}
 OBS SHAPE IS  (12, 16, 144)
 pr   DECKv1b_A1_1981-2005   (12, 16, 144)   (12, 16, 144)    default
 parameter file ref is:  ['default']
 ref is:  ['default']
 REGION: {'id': 'land', 'value': 100}
 OBS SHAPE IS  (12, 72, 144)
 auto generating sftlf for model /scratch/tang30/PMP/20180316.DECKv1b_A1.ne30_oEC.edison/1981-2005/data/DECKv1b_A1_1981-2005/tas.nc 
 auto generated sftlf for model DECKv1b_A1_1981-2005 
 tas   DECKv1b_A1_1981-2005   (12, 72, 144)   (12, 72, 144)    default
 REGION: {'domain': Selector(<cdutil.region.DomainComponent instance at 0x7f5794902950>), 'id': 'land_90S50S', 'value': 100.0}
 OBS SHAPE IS  (12, 17, 144)
 tas   DECKv1b_A1_1981-2005   (12, 17, 144)   (12, 17, 144)    default
 REGION: {'domain': Selector(<cdutil.region.DomainComponent instance at 0x7f57949029e0>), 'id': 'land_50S20S', 'value': 100.0}
 OBS SHAPE IS  (12, 13, 144)
 tas   DECKv1b_A1_1981-2005   (12, 13, 144)   (12, 13, 144)    default
 REGION: {'domain': Selector(<cdutil.region.DomainComponent instance at 0x7f5794902a70>), 'id': 'land_20S20N', 'value': 100.0}
 OBS SHAPE IS  (12, 17, 144)
 tas   DECKv1b_A1_1981-2005   (12, 17, 144)   (12, 17, 144)    default
 REGION: {'domain': Selector(<cdutil.region.DomainComponent instance at 0x7f5794902b90>), 'id': 'land_20N50N', 'value': 100.0}
 OBS SHAPE IS  (12, 13, 144)
 tas   DECKv1b_A1_1981-2005   (12, 13, 144)   (12, 13, 144)    default
 REGION: {'domain': Selector(<cdutil.region.DomainComponent instance at 0x7f5794902cf8>), 'id': 'land_50N90N', 'value': 100.0}
 OBS SHAPE IS  (12, 16, 144)
 tas   DECKv1b_A1_1981-2005   (12, 16, 144)   (12, 16, 144)    default
 parameter file ref is:  ['default']
 ref is:  ['default']
 REGION: {'domain': Selector(<cdutil.region.DomainComponent instance at 0x7f579493e560>), 'id': 'TROPICS'}
 OBS SHAPE IS  (12, 25, 144)
 Failed to get variable psl for version: DECKv1b_A1_1981-2005, error:
Cannot open file /scratch/tang30/PMP/20180316.DECKv1b_A1.ne30_oEC.edison/1981-2005/data/DECKv1b_A1_1981-2005/psl.nc (Variable not found)
 REGION: {'domain': Selector(<cdutil.region.DomainComponent instance at 0x7f5794932c68>), 'id': 'SHEX'}
 OBS SHAPE IS  (12, 25, 144)
 Failed to get variable psl for version: DECKv1b_A1_1981-2005, error:
Cannot open file /scratch/tang30/PMP/20180316.DECKv1b_A1.ne30_oEC.edison/1981-2005/data/DECKv1b_A1_1981-2005/psl.nc (Variable not found)
 REGION: {'domain': Selector(<cdutil.region.DomainComponent instance at 0x7f57949320e0>), 'id': 'NHEX'}
 OBS SHAPE IS  (12, 24, 144)
 Failed to get variable psl for version: DECKv1b_A1_1981-2005, error:
Cannot open file /scratch/tang30/PMP/20180316.DECKv1b_A1.ne30_oEC.edison/1981-2005/data/DECKv1b_A1_1981-2005/psl.nc (Variable not found)
 REGION: {'id': 'global'}
 OBS SHAPE IS  (12, 72, 144)
 Failed to get variable psl for version: DECKv1b_A1_1981-2005, error:
Cannot open file /scratch/tang30/PMP/20180316.DECKv1b_A1.ne30_oEC.edison/1981-2005/data/DECKv1b_A1_1981-2005/psl.nc (Variable not found)
 REGION: {'id': 'land', 'value': 100}
 OBS SHAPE IS  (12, 72, 144)
 Failed to get variable psl for version: DECKv1b_A1_1981-2005, error:
Cannot open file /scratch/tang30/PMP/20180316.DECKv1b_A1.ne30_oEC.edison/1981-2005/data/DECKv1b_A1_1981-2005/psl.nc (Variable not found)
 REGION: {'id': 'ocean', 'value': 0}
 OBS SHAPE IS  (12, 72, 144)
 Failed to get variable psl for version: DECKv1b_A1_1981-2005, error:
Cannot open file /scratch/tang30/PMP/20180316.DECKv1b_A1.ne30_oEC.edison/1981-2005/data/DECKv1b_A1_1981-2005/psl.nc (Variable not found)
 REGION: {'domain': Selector(<cdutil.region.DomainComponent instance at 0x7f579490cbd8>), 'id': '90S50S', 'value': None}
 OBS SHAPE IS  (12, 17, 144)
 Failed to get variable psl for version: DECKv1b_A1_1981-2005, error:
Cannot open file /scratch/tang30/PMP/20180316.DECKv1b_A1.ne30_oEC.edison/1981-2005/data/DECKv1b_A1_1981-2005/psl.nc (Variable not found)
 REGION: {'domain': Selector(<cdutil.region.DomainComponent instance at 0x7f579490ce60>), 'id': '50S20S', 'value': None}
 OBS SHAPE IS  (12, 13, 144)
 Failed to get variable psl for version: DECKv1b_A1_1981-2005, error:
Cannot open file /scratch/tang30/PMP/20180316.DECKv1b_A1.ne30_oEC.edison/1981-2005/data/DECKv1b_A1_1981-2005/psl.nc (Variable not found)
 REGION: {'domain': Selector(<cdutil.region.DomainComponent instance at 0x7f5794914128>), 'id': '20S20N', 'value': None}
 OBS SHAPE IS  (12, 17, 144)
 Failed to get variable psl for version: DECKv1b_A1_1981-2005, error:
Cannot open file /scratch/tang30/PMP/20180316.DECKv1b_A1.ne30_oEC.edison/1981-2005/data/DECKv1b_A1_1981-2005/psl.nc (Variable not found)
 REGION: {'domain': Selector(<cdutil.region.DomainComponent instance at 0x7f57949143b0>), 'id': '20N50N', 'value': None}
 OBS SHAPE IS  (12, 13, 144)
 Failed to get variable psl for version: DECKv1b_A1_1981-2005, error:
Cannot open file /scratch/tang30/PMP/20180316.DECKv1b_A1.ne30_oEC.edison/1981-2005/data/DECKv1b_A1_1981-2005/psl.nc (Variable not found)
 REGION: {'domain': Selector(<cdutil.region.DomainComponent instance at 0x7f5794914638>), 'id': '50N90N', 'value': None}
 OBS SHAPE IS  (12, 16, 144)
 Failed to get variable psl for version: DECKv1b_A1_1981-2005, error:
Cannot open file /scratch/tang30/PMP/20180316.DECKv1b_A1.ne30_oEC.edison/1981-2005/data/DECKv1b_A1_1981-2005/psl.nc (Variable not found)
 parameter file ref is:  ['default']
 ref is:  ['default']
 couldn't figure out obs mask name from obs json file
 REGION: {'domain': Selector(<cdutil.region.DomainComponent instance at 0x7f579493e560>), 'id': 'TROPICS'}
 OBS SHAPE IS  (12, 25, 144)
 rlut   DECKv1b_A1_1981-2005   (12, 25, 144)   (12, 25, 144)    default
 couldn't figure out obs mask name from obs json file
 REGION: {'domain': Selector(<cdutil.region.DomainComponent instance at 0x7f5794932c68>), 'id': 'SHEX'}
 OBS SHAPE IS  (12, 25, 144)
 rlut   DECKv1b_A1_1981-2005   (12, 25, 144)   (12, 25, 144)    default
 couldn't figure out obs mask name from obs json file
 REGION: {'domain': Selector(<cdutil.region.DomainComponent instance at 0x7f57949320e0>), 'id': 'NHEX'}
 OBS SHAPE IS  (12, 24, 144)
 rlut   DECKv1b_A1_1981-2005   (12, 24, 144)   (12, 24, 144)    default
 couldn't figure out obs mask name from obs json file
 REGION: {'id': 'global'}
 OBS SHAPE IS  (12, 72, 144)
 rlut   DECKv1b_A1_1981-2005   (12, 72, 144)   (12, 72, 144)    default
 couldn't figure out obs mask name from obs json file
 REGION: {'id': 'land', 'value': 100}
 OBS SHAPE IS  (12, 72, 144)
 rlut   DECKv1b_A1_1981-2005   (12, 72, 144)   (12, 72, 144)    default
 couldn't figure out obs mask name from obs json file
 REGION: {'id': 'ocean', 'value': 0}
 OBS SHAPE IS  (12, 72, 144)
 rlut   DECKv1b_A1_1981-2005   (12, 72, 144)   (12, 72, 144)    default
 couldn't figure out obs mask name from obs json file
 REGION: {'domain': Selector(<cdutil.region.DomainComponent instance at 0x7f579490cbd8>), 'id': '90S50S', 'value': None}
 OBS SHAPE IS  (12, 17, 144)
 rlut   DECKv1b_A1_1981-2005   (12, 17, 144)   (12, 17, 144)    default
 couldn't figure out obs mask name from obs json file
 REGION: {'domain': Selector(<cdutil.region.DomainComponent instance at 0x7f579490ce60>), 'id': '50S20S', 'value': None}
 OBS SHAPE IS  (12, 13, 144)
 rlut   DECKv1b_A1_1981-2005   (12, 13, 144)   (12, 13, 144)    default
 couldn't figure out obs mask name from obs json file
 REGION: {'domain': Selector(<cdutil.region.DomainComponent instance at 0x7f5794914128>), 'id': '20S20N', 'value': None}
 OBS SHAPE IS  (12, 17, 144)
 rlut   DECKv1b_A1_1981-2005   (12, 17, 144)   (12, 17, 144)    default
 couldn't figure out obs mask name from obs json file
 REGION: {'domain': Selector(<cdutil.region.DomainComponent instance at 0x7f57949143b0>), 'id': '20N50N', 'value': None}
 OBS SHAPE IS  (12, 13, 144)
 rlut   DECKv1b_A1_1981-2005   (12, 13, 144)   (12, 13, 144)    default
 couldn't figure out obs mask name from obs json file
 REGION: {'domain': Selector(<cdutil.region.DomainComponent instance at 0x7f5794914638>), 'id': '50N90N', 'value': None}
 OBS SHAPE IS  (12, 16, 144)
 rlut   DECKv1b_A1_1981-2005   (12, 16, 144)   (12, 16, 144)    default
 parameter file ref is:  ['default']
 ref is:  ['default']
 couldn't figure out obs mask name from obs json file
 REGION: {'domain': Selector(<cdutil.region.DomainComponent instance at 0x7f579493e560>), 'id': 'TROPICS'}
 OBS SHAPE IS  (12, 25, 144)
 rst   DECKv1b_A1_1981-2005   (12, 25, 144)   (12, 25, 144)    default
 couldn't figure out obs mask name from obs json file
 REGION: {'domain': Selector(<cdutil.region.DomainComponent instance at 0x7f5794932c68>), 'id': 'SHEX'}
 OBS SHAPE IS  (12, 25, 144)
 rst   DECKv1b_A1_1981-2005   (12, 25, 144)   (12, 25, 144)    default
 couldn't figure out obs mask name from obs json file
 REGION: {'domain': Selector(<cdutil.region.DomainComponent instance at 0x7f57949320e0>), 'id': 'NHEX'}
 OBS SHAPE IS  (12, 24, 144)
 rst   DECKv1b_A1_1981-2005   (12, 24, 144)   (12, 24, 144)    default
 couldn't figure out obs mask name from obs json file
 REGION: {'id': 'global'}
 OBS SHAPE IS  (12, 72, 144)
 rst   DECKv1b_A1_1981-2005   (12, 72, 144)   (12, 72, 144)    default
 couldn't figure out obs mask name from obs json file
 REGION: {'id': 'land', 'value': 100}
 OBS SHAPE IS  (12, 72, 144)
 rst   DECKv1b_A1_1981-2005   (12, 72, 144)   (12, 72, 144)    default
 couldn't figure out obs mask name from obs json file
 REGION: {'id': 'ocean', 'value': 0}
 OBS SHAPE IS  (12, 72, 144)
 rst   DECKv1b_A1_1981-2005   (12, 72, 144)   (12, 72, 144)    default
 couldn't figure out obs mask name from obs json file
 REGION: {'domain': Selector(<cdutil.region.DomainComponent instance at 0x7f579490cbd8>), 'id': '90S50S', 'value': None}
 OBS SHAPE IS  (12, 17, 144)
 rst   DECKv1b_A1_1981-2005   (12, 17, 144)   (12, 17, 144)    default
 couldn't figure out obs mask name from obs json file
 REGION: {'domain': Selector(<cdutil.region.DomainComponent instance at 0x7f579490ce60>), 'id': '50S20S', 'value': None}
 OBS SHAPE IS  (12, 13, 144)
 rst   DECKv1b_A1_1981-2005   (12, 13, 144)   (12, 13, 144)    default
 couldn't figure out obs mask name from obs json file
 REGION: {'domain': Selector(<cdutil.region.DomainComponent instance at 0x7f5794914128>), 'id': '20S20N', 'value': None}
 OBS SHAPE IS  (12, 17, 144)
 rst   DECKv1b_A1_1981-2005   (12, 17, 144)   (12, 17, 144)    default
 couldn't figure out obs mask name from obs json file
 REGION: {'domain': Selector(<cdutil.region.DomainComponent instance at 0x7f57949143b0>), 'id': '20N50N', 'value': None}
 OBS SHAPE IS  (12, 13, 144)
 rst   DECKv1b_A1_1981-2005   (12, 13, 144)   (12, 13, 144)    default
 couldn't figure out obs mask name from obs json file
 REGION: {'domain': Selector(<cdutil.region.DomainComponent instance at 0x7f5794914638>), 'id': '50N90N', 'value': None}
 OBS SHAPE IS  (12, 16, 144)
 rst   DECKv1b_A1_1981-2005   (12, 16, 144)   (12, 16, 144)    default
 parameter file ref is:  ['default']
 ref is:  ['default']
 couldn't figure out obs mask name from obs json file
 REGION: {'domain': Selector(<cdutil.region.DomainComponent instance at 0x7f579493e560>), 'id': 'TROPICS'}
 OBS SHAPE IS  (12, 25, 144)
 rt   DECKv1b_A1_1981-2005   (12, 25, 144)   (12, 25, 144)    default
 couldn't figure out obs mask name from obs json file
 REGION: {'domain': Selector(<cdutil.region.DomainComponent instance at 0x7f5794932c68>), 'id': 'SHEX'}
 OBS SHAPE IS  (12, 25, 144)
 rt   DECKv1b_A1_1981-2005   (12, 25, 144)   (12, 25, 144)    default
 couldn't figure out obs mask name from obs json file
 REGION: {'domain': Selector(<cdutil.region.DomainComponent instance at 0x7f57949320e0>), 'id': 'NHEX'}
 OBS SHAPE IS  (12, 24, 144)
 rt   DECKv1b_A1_1981-2005   (12, 24, 144)   (12, 24, 144)    default
 couldn't figure out obs mask name from obs json file
 REGION: {'id': 'global'}
 OBS SHAPE IS  (12, 72, 144)
 rt   DECKv1b_A1_1981-2005   (12, 72, 144)   (12, 72, 144)    default
 couldn't figure out obs mask name from obs json file
 REGION: {'id': 'land', 'value': 100}
 OBS SHAPE IS  (12, 72, 144)
 rt   DECKv1b_A1_1981-2005   (12, 72, 144)   (12, 72, 144)    default
 couldn't figure out obs mask name from obs json file
 REGION: {'id': 'ocean', 'value': 0}
 OBS SHAPE IS  (12, 72, 144)
 rt   DECKv1b_A1_1981-2005   (12, 72, 144)   (12, 72, 144)    default
 couldn't figure out obs mask name from obs json file
 REGION: {'domain': Selector(<cdutil.region.DomainComponent instance at 0x7f579490cbd8>), 'id': '90S50S', 'value': None}
 OBS SHAPE IS  (12, 17, 144)
 rt   DECKv1b_A1_1981-2005   (12, 17, 144)   (12, 17, 144)    default
 couldn't figure out obs mask name from obs json file
 REGION: {'domain': Selector(<cdutil.region.DomainComponent instance at 0x7f579490ce60>), 'id': '50S20S', 'value': None}
 OBS SHAPE IS  (12, 13, 144)
 rt   DECKv1b_A1_1981-2005   (12, 13, 144)   (12, 13, 144)    default
 couldn't figure out obs mask name from obs json file
 REGION: {'domain': Selector(<cdutil.region.DomainComponent instance at 0x7f5794914128>), 'id': '20S20N', 'value': None}
 OBS SHAPE IS  (12, 17, 144)
 rt   DECKv1b_A1_1981-2005   (12, 17, 144)   (12, 17, 144)    default
 couldn't figure out obs mask name from obs json file
 REGION: {'domain': Selector(<cdutil.region.DomainComponent instance at 0x7f57949143b0>), 'id': '20N50N', 'value': None}
 OBS SHAPE IS  (12, 13, 144)
 rt   DECKv1b_A1_1981-2005   (12, 13, 144)   (12, 13, 144)    default
 couldn't figure out obs mask name from obs json file
 REGION: {'domain': Selector(<cdutil.region.DomainComponent instance at 0x7f5794914638>), 'id': '50N90N', 'value': None}
 OBS SHAPE IS  (12, 16, 144)
 rt   DECKv1b_A1_1981-2005   (12, 16, 144)   (12, 16, 144)    default
 parameter file ref is:  ['default']
 ref is:  ['default']
 couldn't figure out obs mask name from obs json file
 REGION: {'domain': Selector(<cdutil.region.DomainComponent instance at 0x7f579493e560>), 'id': 'TROPICS'}
 OBS SHAPE IS  (12, 25, 144)
 rstcre   DECKv1b_A1_1981-2005   (12, 25, 144)   (12, 25, 144)    default
 couldn't figure out obs mask name from obs json file
 REGION: {'domain': Selector(<cdutil.region.DomainComponent instance at 0x7f5794932c68>), 'id': 'SHEX'}
 OBS SHAPE IS  (12, 25, 144)
 rstcre   DECKv1b_A1_1981-2005   (12, 25, 144)   (12, 25, 144)    default
 couldn't figure out obs mask name from obs json file
 REGION: {'domain': Selector(<cdutil.region.DomainComponent instance at 0x7f57949320e0>), 'id': 'NHEX'}
 OBS SHAPE IS  (12, 24, 144)
 rstcre   DECKv1b_A1_1981-2005   (12, 24, 144)   (12, 24, 144)    default
 couldn't figure out obs mask name from obs json file
 REGION: {'id': 'global'}
 OBS SHAPE IS  (12, 72, 144)
 rstcre   DECKv1b_A1_1981-2005   (12, 72, 144)   (12, 72, 144)    default
 couldn't figure out obs mask name from obs json file
 REGION: {'id': 'land', 'value': 100}
 OBS SHAPE IS  (12, 72, 144)
 rstcre   DECKv1b_A1_1981-2005   (12, 72, 144)   (12, 72, 144)    default
 couldn't figure out obs mask name from obs json file
 REGION: {'id': 'ocean', 'value': 0}
 OBS SHAPE IS  (12, 72, 144)
 rstcre   DECKv1b_A1_1981-2005   (12, 72, 144)   (12, 72, 144)    default
 couldn't figure out obs mask name from obs json file
 REGION: {'domain': Selector(<cdutil.region.DomainComponent instance at 0x7f579490cbd8>), 'id': '90S50S', 'value': None}
 OBS SHAPE IS  (12, 17, 144)
 rstcre   DECKv1b_A1_1981-2005   (12, 17, 144)   (12, 17, 144)    default
 couldn't figure out obs mask name from obs json file
 REGION: {'domain': Selector(<cdutil.region.DomainComponent instance at 0x7f579490ce60>), 'id': '50S20S', 'value': None}
 OBS SHAPE IS  (12, 13, 144)
 rstcre   DECKv1b_A1_1981-2005   (12, 13, 144)   (12, 13, 144)    default
 couldn't figure out obs mask name from obs json file
 REGION: {'domain': Selector(<cdutil.region.DomainComponent instance at 0x7f5794914128>), 'id': '20S20N', 'value': None}
 OBS SHAPE IS  (12, 17, 144)
 rstcre   DECKv1b_A1_1981-2005   (12, 17, 144)   (12, 17, 144)    default
 couldn't figure out obs mask name from obs json file
 REGION: {'domain': Selector(<cdutil.region.DomainComponent instance at 0x7f57949143b0>), 'id': '20N50N', 'value': None}
 OBS SHAPE IS  (12, 13, 144)
 rstcre   DECKv1b_A1_1981-2005   (12, 13, 144)   (12, 13, 144)    default
 couldn't figure out obs mask name from obs json file
 REGION: {'domain': Selector(<cdutil.region.DomainComponent instance at 0x7f5794914638>), 'id': '50N90N', 'value': None}
 OBS SHAPE IS  (12, 16, 144)
 rstcre   DECKv1b_A1_1981-2005   (12, 16, 144)   (12, 16, 144)    default
 parameter file ref is:  ['default']
 ref is:  ['default']
 couldn't figure out obs mask name from obs json file
 REGION: {'domain': Selector(<cdutil.region.DomainComponent instance at 0x7f579493e560>), 'id': 'TROPICS'}
 OBS SHAPE IS  (12, 25, 144)
 rltcre   DECKv1b_A1_1981-2005   (12, 25, 144)   (12, 25, 144)    default
 couldn't figure out obs mask name from obs json file
 REGION: {'domain': Selector(<cdutil.region.DomainComponent instance at 0x7f5794932c68>), 'id': 'SHEX'}
 OBS SHAPE IS  (12, 25, 144)
 rltcre   DECKv1b_A1_1981-2005   (12, 25, 144)   (12, 25, 144)    default
 couldn't figure out obs mask name from obs json file
 REGION: {'domain': Selector(<cdutil.region.DomainComponent instance at 0x7f57949320e0>), 'id': 'NHEX'}
 OBS SHAPE IS  (12, 24, 144)
 rltcre   DECKv1b_A1_1981-2005   (12, 24, 144)   (12, 24, 144)    default
 couldn't figure out obs mask name from obs json file
 REGION: {'id': 'global'}
 OBS SHAPE IS  (12, 72, 144)
 rltcre   DECKv1b_A1_1981-2005   (12, 72, 144)   (12, 72, 144)    default
 couldn't figure out obs mask name from obs json file
 REGION: {'id': 'land', 'value': 100}
 OBS SHAPE IS  (12, 72, 144)
 rltcre   DECKv1b_A1_1981-2005   (12, 72, 144)   (12, 72, 144)    default
 couldn't figure out obs mask name from obs json file
 REGION: {'id': 'ocean', 'value': 0}
 OBS SHAPE IS  (12, 72, 144)
 rltcre   DECKv1b_A1_1981-2005   (12, 72, 144)   (12, 72, 144)    default
 couldn't figure out obs mask name from obs json file
 REGION: {'domain': Selector(<cdutil.region.DomainComponent instance at 0x7f579490cbd8>), 'id': '90S50S', 'value': None}
 OBS SHAPE IS  (12, 17, 144)
 rltcre   DECKv1b_A1_1981-2005   (12, 17, 144)   (12, 17, 144)    default
 couldn't figure out obs mask name from obs json file
 REGION: {'domain': Selector(<cdutil.region.DomainComponent instance at 0x7f579490ce60>), 'id': '50S20S', 'value': None}
 OBS SHAPE IS  (12, 13, 144)
 rltcre   DECKv1b_A1_1981-2005   (12, 13, 144)   (12, 13, 144)    default
 couldn't figure out obs mask name from obs json file
 REGION: {'domain': Selector(<cdutil.region.DomainComponent instance at 0x7f5794914128>), 'id': '20S20N', 'value': None}
 OBS SHAPE IS  (12, 17, 144)
 rltcre   DECKv1b_A1_1981-2005   (12, 17, 144)   (12, 17, 144)    default
 couldn't figure out obs mask name from obs json file
 REGION: {'domain': Selector(<cdutil.region.DomainComponent instance at 0x7f57949143b0>), 'id': '20N50N', 'value': None}
 OBS SHAPE IS  (12, 13, 144)
 rltcre   DECKv1b_A1_1981-2005   (12, 13, 144)   (12, 13, 144)    default
 couldn't figure out obs mask name from obs json file
 REGION: {'domain': Selector(<cdutil.region.DomainComponent instance at 0x7f5794914638>), 'id': '50N90N', 'value': None}
 OBS SHAPE IS  (12, 16, 144)
 rltcre   DECKv1b_A1_1981-2005   (12, 16, 144)   (12, 16, 144)    default
 parameter file ref is:  ['default']
 ref is:  ['default']
 couldn't figure out obs mask name from obs json file
 REGION: {'id': 'global'}
 OBS SHAPE IS  (12, 72, 144)
 Failed to get variable prw for version: DECKv1b_A1_1981-2005, error:
Cannot open file /scratch/tang30/PMP/20180316.DECKv1b_A1.ne30_oEC.edison/1981-2005/data/DECKv1b_A1_1981-2005/prw.nc (Variable not found)
 couldn't figure out obs mask name from obs json file
 REGION: {'domain': Selector(<cdutil.region.DomainComponent instance at 0x7f57949320e0>), 'id': 'NHEX'}
 OBS SHAPE IS  (12, 24, 144)
 Failed to get variable prw for version: DECKv1b_A1_1981-2005, error:
Cannot open file /scratch/tang30/PMP/20180316.DECKv1b_A1.ne30_oEC.edison/1981-2005/data/DECKv1b_A1_1981-2005/prw.nc (Variable not found)
 couldn't figure out obs mask name from obs json file
 REGION: {'domain': Selector(<cdutil.region.DomainComponent instance at 0x7f5794932c68>), 'id': 'SHEX'}
 OBS SHAPE IS  (12, 25, 144)
 Failed to get variable prw for version: DECKv1b_A1_1981-2005, error:
Cannot open file /scratch/tang30/PMP/20180316.DECKv1b_A1.ne30_oEC.edison/1981-2005/data/DECKv1b_A1_1981-2005/prw.nc (Variable not found)
 couldn't figure out obs mask name from obs json file
 REGION: {'domain': Selector(<cdutil.region.DomainComponent instance at 0x7f579493e560>), 'id': 'TROPICS'}
 OBS SHAPE IS  (12, 25, 144)
 Failed to get variable prw for version: DECKv1b_A1_1981-2005, error:
Cannot open file /scratch/tang30/PMP/20180316.DECKv1b_A1.ne30_oEC.edison/1981-2005/data/DECKv1b_A1_1981-2005/prw.nc (Variable not found)
 parameter file ref is:  ['default']
 ref is:  ['default']
 REGION: {'domain': Selector(<cdutil.region.DomainComponent instance at 0x7f579493e560>), 'id': 'TROPICS'}
 OBS SHAPE IS  (12, 1, 25, 144)
 ua   DECKv1b_A1_1981-2005   (12, 1, 25, 144)   (12, 1, 25, 144)    default
 REGION: {'domain': Selector(<cdutil.region.DomainComponent instance at 0x7f5794932c68>), 'id': 'SHEX'}
 OBS SHAPE IS  (12, 1, 25, 144)
 ua   DECKv1b_A1_1981-2005   (12, 1, 25, 144)   (12, 1, 25, 144)    default
 REGION: {'domain': Selector(<cdutil.region.DomainComponent instance at 0x7f57949320e0>), 'id': 'NHEX'}
 OBS SHAPE IS  (12, 1, 24, 144)
 ua   DECKv1b_A1_1981-2005   (12, 1, 24, 144)   (12, 1, 24, 144)    default
 REGION: {'id': 'global'}
 OBS SHAPE IS  (12, 1, 72, 144)
 ua   DECKv1b_A1_1981-2005   (12, 1, 72, 144)   (12, 1, 72, 144)    default
 REGION: {'domain': Selector(<cdutil.region.DomainComponent instance at 0x7f579490cbd8>), 'id': '90S50S', 'value': None}
 OBS SHAPE IS  (12, 1, 17, 144)
 ua   DECKv1b_A1_1981-2005   (12, 1, 17, 144)   (12, 1, 17, 144)    default
 REGION: {'domain': Selector(<cdutil.region.DomainComponent instance at 0x7f579490ce60>), 'id': '50S20S', 'value': None}
 OBS SHAPE IS  (12, 1, 13, 144)
 ua   DECKv1b_A1_1981-2005   (12, 1, 13, 144)   (12, 1, 13, 144)    default
 REGION: {'domain': Selector(<cdutil.region.DomainComponent instance at 0x7f5794914128>), 'id': '20S20N', 'value': None}
 OBS SHAPE IS  (12, 1, 17, 144)
 ua   DECKv1b_A1_1981-2005   (12, 1, 17, 144)   (12, 1, 17, 144)    default
 REGION: {'domain': Selector(<cdutil.region.DomainComponent instance at 0x7f57949143b0>), 'id': '20N50N', 'value': None}
 OBS SHAPE IS  (12, 1, 13, 144)
 ua   DECKv1b_A1_1981-2005   (12, 1, 13, 144)   (12, 1, 13, 144)    default
 REGION: {'domain': Selector(<cdutil.region.DomainComponent instance at 0x7f5794914638>), 'id': '50N90N', 'value': None}
 OBS SHAPE IS  (12, 1, 16, 144)
 ua   DECKv1b_A1_1981-2005   (12, 1, 16, 144)   (12, 1, 16, 144)    default
 parameter file ref is:  ['default']
 ref is:  ['default']
 REGION: {'domain': Selector(<cdutil.region.DomainComponent instance at 0x7f579493e560>), 'id': 'TROPICS'}
 OBS SHAPE IS  (12, 1, 25, 144)
 ua   DECKv1b_A1_1981-2005   (12, 1, 25, 144)   (12, 1, 25, 144)    default
 REGION: {'domain': Selector(<cdutil.region.DomainComponent instance at 0x7f5794932c68>), 'id': 'SHEX'}
 OBS SHAPE IS  (12, 1, 25, 144)
 ua   DECKv1b_A1_1981-2005   (12, 1, 25, 144)   (12, 1, 25, 144)    default
 REGION: {'domain': Selector(<cdutil.region.DomainComponent instance at 0x7f57949320e0>), 'id': 'NHEX'}
 OBS SHAPE IS  (12, 1, 24, 144)
 ua   DECKv1b_A1_1981-2005   (12, 1, 24, 144)   (12, 1, 24, 144)    default
 REGION: {'id': 'global'}
 OBS SHAPE IS  (12, 1, 72, 144)
 ua   DECKv1b_A1_1981-2005   (12, 1, 72, 144)   (12, 1, 72, 144)    default
 REGION: {'domain': Selector(<cdutil.region.DomainComponent instance at 0x7f579490cbd8>), 'id': '90S50S', 'value': None}
 OBS SHAPE IS  (12, 1, 17, 144)
 ua   DECKv1b_A1_1981-2005   (12, 1, 17, 144)   (12, 1, 17, 144)    default
 REGION: {'domain': Selector(<cdutil.region.DomainComponent instance at 0x7f579490ce60>), 'id': '50S20S', 'value': None}
 OBS SHAPE IS  (12, 1, 13, 144)
 ua   DECKv1b_A1_1981-2005   (12, 1, 13, 144)   (12, 1, 13, 144)    default
 REGION: {'domain': Selector(<cdutil.region.DomainComponent instance at 0x7f5794914128>), 'id': '20S20N', 'value': None}
 OBS SHAPE IS  (12, 1, 17, 144)
 ua   DECKv1b_A1_1981-2005   (12, 1, 17, 144)   (12, 1, 17, 144)    default
 REGION: {'domain': Selector(<cdutil.region.DomainComponent instance at 0x7f57949143b0>), 'id': '20N50N', 'value': None}
 OBS SHAPE IS  (12, 1, 13, 144)
 ua   DECKv1b_A1_1981-2005   (12, 1, 13, 144)   (12, 1, 13, 144)    default
 REGION: {'domain': Selector(<cdutil.region.DomainComponent instance at 0x7f5794914638>), 'id': '50N90N', 'value': None}
 OBS SHAPE IS  (12, 1, 16, 144)
 ua   DECKv1b_A1_1981-2005   (12, 1, 16, 144)   (12, 1, 16, 144)    default
 parameter file ref is:  ['default']
 ref is:  ['default']
 REGION: {'domain': Selector(<cdutil.region.DomainComponent instance at 0x7f579493e560>), 'id': 'TROPICS'}
 OBS SHAPE IS  (12, 1, 25, 144)
 va   DECKv1b_A1_1981-2005   (12, 1, 25, 144)   (12, 1, 25, 144)    default
 REGION: {'domain': Selector(<cdutil.region.DomainComponent instance at 0x7f5794932c68>), 'id': 'SHEX'}
 OBS SHAPE IS  (12, 1, 25, 144)
 va   DECKv1b_A1_1981-2005   (12, 1, 25, 144)   (12, 1, 25, 144)    default
 REGION: {'domain': Selector(<cdutil.region.DomainComponent instance at 0x7f57949320e0>), 'id': 'NHEX'}
 OBS SHAPE IS  (12, 1, 24, 144)
 va   DECKv1b_A1_1981-2005   (12, 1, 24, 144)   (12, 1, 24, 144)    default
 REGION: {'id': 'global'}
 OBS SHAPE IS  (12, 1, 72, 144)
 va   DECKv1b_A1_1981-2005   (12, 1, 72, 144)   (12, 1, 72, 144)    default
 REGION: {'domain': Selector(<cdutil.region.DomainComponent instance at 0x7f579490cbd8>), 'id': '90S50S', 'value': None}
 OBS SHAPE IS  (12, 1, 17, 144)
 va   DECKv1b_A1_1981-2005   (12, 1, 17, 144)   (12, 1, 17, 144)    default
 REGION: {'domain': Selector(<cdutil.region.DomainComponent instance at 0x7f579490ce60>), 'id': '50S20S', 'value': None}
 OBS SHAPE IS  (12, 1, 13, 144)
 va   DECKv1b_A1_1981-2005   (12, 1, 13, 144)   (12, 1, 13, 144)    default
 REGION: {'domain': Selector(<cdutil.region.DomainComponent instance at 0x7f5794914128>), 'id': '20S20N', 'value': None}
 OBS SHAPE IS  (12, 1, 17, 144)
 va   DECKv1b_A1_1981-2005   (12, 1, 17, 144)   (12, 1, 17, 144)    default
 REGION: {'domain': Selector(<cdutil.region.DomainComponent instance at 0x7f57949143b0>), 'id': '20N50N', 'value': None}
 OBS SHAPE IS  (12, 1, 13, 144)
 va   DECKv1b_A1_1981-2005   (12, 1, 13, 144)   (12, 1, 13, 144)    default
 REGION: {'domain': Selector(<cdutil.region.DomainComponent instance at 0x7f5794914638>), 'id': '50N90N', 'value': None}
 OBS SHAPE IS  (12, 1, 16, 144)
 va   DECKv1b_A1_1981-2005   (12, 1, 16, 144)   (12, 1, 16, 144)    default
 parameter file ref is:  ['default']
 ref is:  ['default']
 REGION: {'domain': Selector(<cdutil.region.DomainComponent instance at 0x7f579493e560>), 'id': 'TROPICS'}
 OBS SHAPE IS  (12, 1, 25, 144)
 va   DECKv1b_A1_1981-2005   (12, 1, 25, 144)   (12, 1, 25, 144)    default
 REGION: {'domain': Selector(<cdutil.region.DomainComponent instance at 0x7f5794932c68>), 'id': 'SHEX'}
 OBS SHAPE IS  (12, 1, 25, 144)
 va   DECKv1b_A1_1981-2005   (12, 1, 25, 144)   (12, 1, 25, 144)    default
 REGION: {'domain': Selector(<cdutil.region.DomainComponent instance at 0x7f57949320e0>), 'id': 'NHEX'}
 OBS SHAPE IS  (12, 1, 24, 144)
 va   DECKv1b_A1_1981-2005   (12, 1, 24, 144)   (12, 1, 24, 144)    default
 REGION: {'id': 'global'}
 OBS SHAPE IS  (12, 1, 72, 144)
 va   DECKv1b_A1_1981-2005   (12, 1, 72, 144)   (12, 1, 72, 144)    default
 REGION: {'domain': Selector(<cdutil.region.DomainComponent instance at 0x7f579490cbd8>), 'id': '90S50S', 'value': None}
 OBS SHAPE IS  (12, 1, 17, 144)
 va   DECKv1b_A1_1981-2005   (12, 1, 17, 144)   (12, 1, 17, 144)    default
 REGION: {'domain': Selector(<cdutil.region.DomainComponent instance at 0x7f579490ce60>), 'id': '50S20S', 'value': None}
 OBS SHAPE IS  (12, 1, 13, 144)
 va   DECKv1b_A1_1981-2005   (12, 1, 13, 144)   (12, 1, 13, 144)    default
 REGION: {'domain': Selector(<cdutil.region.DomainComponent instance at 0x7f5794914128>), 'id': '20S20N', 'value': None}
 OBS SHAPE IS  (12, 1, 17, 144)
 va   DECKv1b_A1_1981-2005   (12, 1, 17, 144)   (12, 1, 17, 144)    default
 REGION: {'domain': Selector(<cdutil.region.DomainComponent instance at 0x7f57949143b0>), 'id': '20N50N', 'value': None}
 OBS SHAPE IS  (12, 1, 13, 144)
 va   DECKv1b_A1_1981-2005   (12, 1, 13, 144)   (12, 1, 13, 144)    default
 REGION: {'domain': Selector(<cdutil.region.DomainComponent instance at 0x7f5794914638>), 'id': '50N90N', 'value': None}
 OBS SHAPE IS  (12, 1, 16, 144)
 va   DECKv1b_A1_1981-2005   (12, 1, 16, 144)   (12, 1, 16, 144)    default
 parameter file ref is:  ['default']
 ref is:  ['default']
 REGION: {'domain': Selector(<cdutil.region.DomainComponent instance at 0x7f579493e560>), 'id': 'TROPICS'}
 OBS SHAPE IS  (12, 1, 25, 144)
 ta   DECKv1b_A1_1981-2005   (12, 1, 25, 144)   (12, 1, 25, 144)    default
 REGION: {'domain': Selector(<cdutil.region.DomainComponent instance at 0x7f5794932c68>), 'id': 'SHEX'}
 OBS SHAPE IS  (12, 1, 25, 144)
 ta   DECKv1b_A1_1981-2005   (12, 1, 25, 144)   (12, 1, 25, 144)    default
 REGION: {'domain': Selector(<cdutil.region.DomainComponent instance at 0x7f57949320e0>), 'id': 'NHEX'}
 OBS SHAPE IS  (12, 1, 24, 144)
 ta   DECKv1b_A1_1981-2005   (12, 1, 24, 144)   (12, 1, 24, 144)    default
 REGION: {'id': 'global'}
 OBS SHAPE IS  (12, 1, 72, 144)
 ta   DECKv1b_A1_1981-2005   (12, 1, 72, 144)   (12, 1, 72, 144)    default
 REGION: {'domain': Selector(<cdutil.region.DomainComponent instance at 0x7f579490cbd8>), 'id': '90S50S', 'value': None}
 OBS SHAPE IS  (12, 1, 17, 144)
 ta   DECKv1b_A1_1981-2005   (12, 1, 17, 144)   (12, 1, 17, 144)    default
 REGION: {'domain': Selector(<cdutil.region.DomainComponent instance at 0x7f579490ce60>), 'id': '50S20S', 'value': None}
 OBS SHAPE IS  (12, 1, 13, 144)
 ta   DECKv1b_A1_1981-2005   (12, 1, 13, 144)   (12, 1, 13, 144)    default
 REGION: {'domain': Selector(<cdutil.region.DomainComponent instance at 0x7f5794914128>), 'id': '20S20N', 'value': None}
 OBS SHAPE IS  (12, 1, 17, 144)
 ta   DECKv1b_A1_1981-2005   (12, 1, 17, 144)   (12, 1, 17, 144)    default
 REGION: {'domain': Selector(<cdutil.region.DomainComponent instance at 0x7f57949143b0>), 'id': '20N50N', 'value': None}
 OBS SHAPE IS  (12, 1, 13, 144)
 ta   DECKv1b_A1_1981-2005   (12, 1, 13, 144)   (12, 1, 13, 144)    default
 REGION: {'domain': Selector(<cdutil.region.DomainComponent instance at 0x7f5794914638>), 'id': '50N90N', 'value': None}
 OBS SHAPE IS  (12, 1, 16, 144)
 ta   DECKv1b_A1_1981-2005   (12, 1, 16, 144)   (12, 1, 16, 144)    default
 parameter file ref is:  ['default']
 ref is:  ['default']
 REGION: {'domain': Selector(<cdutil.region.DomainComponent instance at 0x7f579493e560>), 'id': 'TROPICS'}
 OBS SHAPE IS  (12, 1, 25, 144)
 ta   DECKv1b_A1_1981-2005   (12, 1, 25, 144)   (12, 1, 25, 144)    default
 REGION: {'domain': Selector(<cdutil.region.DomainComponent instance at 0x7f5794932c68>), 'id': 'SHEX'}
 OBS SHAPE IS  (12, 1, 25, 144)
 ta   DECKv1b_A1_1981-2005   (12, 1, 25, 144)   (12, 1, 25, 144)    default
 REGION: {'domain': Selector(<cdutil.region.DomainComponent instance at 0x7f57949320e0>), 'id': 'NHEX'}
 OBS SHAPE IS  (12, 1, 24, 144)
 ta   DECKv1b_A1_1981-2005   (12, 1, 24, 144)   (12, 1, 24, 144)    default
 REGION: {'id': 'global'}
 OBS SHAPE IS  (12, 1, 72, 144)
 ta   DECKv1b_A1_1981-2005   (12, 1, 72, 144)   (12, 1, 72, 144)    default
 REGION: {'domain': Selector(<cdutil.region.DomainComponent instance at 0x7f579490cbd8>), 'id': '90S50S', 'value': None}
 OBS SHAPE IS  (12, 1, 17, 144)
 ta   DECKv1b_A1_1981-2005   (12, 1, 17, 144)   (12, 1, 17, 144)    default
 REGION: {'domain': Selector(<cdutil.region.DomainComponent instance at 0x7f579490ce60>), 'id': '50S20S', 'value': None}
 OBS SHAPE IS  (12, 1, 13, 144)
 ta   DECKv1b_A1_1981-2005   (12, 1, 13, 144)   (12, 1, 13, 144)    default
 REGION: {'domain': Selector(<cdutil.region.DomainComponent instance at 0x7f5794914128>), 'id': '20S20N', 'value': None}
 OBS SHAPE IS  (12, 1, 17, 144)
 ta   DECKv1b_A1_1981-2005   (12, 1, 17, 144)   (12, 1, 17, 144)    default
 REGION: {'domain': Selector(<cdutil.region.DomainComponent instance at 0x7f57949143b0>), 'id': '20N50N', 'value': None}
 OBS SHAPE IS  (12, 1, 13, 144)
 ta   DECKv1b_A1_1981-2005   (12, 1, 13, 144)   (12, 1, 13, 144)    default
 REGION: {'domain': Selector(<cdutil.region.DomainComponent instance at 0x7f5794914638>), 'id': '50N90N', 'value': None}
 OBS SHAPE IS  (12, 1, 16, 144)
 ta   DECKv1b_A1_1981-2005   (12, 1, 16, 144)   (12, 1, 16, 144)    default
 parameter file ref is:  ['default']
 ref is:  ['default']
 REGION: {'domain': Selector(<cdutil.region.DomainComponent instance at 0x7f579493e560>), 'id': 'TROPICS'}
 OBS SHAPE IS  (12, 1, 25, 144)
 zg   DECKv1b_A1_1981-2005   (12, 1, 25, 144)   (12, 1, 25, 144)    default
 REGION: {'domain': Selector(<cdutil.region.DomainComponent instance at 0x7f5794932c68>), 'id': 'SHEX'}
 OBS SHAPE IS  (12, 1, 25, 144)
 zg   DECKv1b_A1_1981-2005   (12, 1, 25, 144)   (12, 1, 25, 144)    default
 REGION: {'domain': Selector(<cdutil.region.DomainComponent instance at 0x7f57949320e0>), 'id': 'NHEX'}
 OBS SHAPE IS  (12, 1, 24, 144)
 zg   DECKv1b_A1_1981-2005   (12, 1, 24, 144)   (12, 1, 24, 144)    default
 REGION: {'id': 'global'}
 OBS SHAPE IS  (12, 1, 72, 144)
 zg   DECKv1b_A1_1981-2005   (12, 1, 72, 144)   (12, 1, 72, 144)    default
 REGION: {'domain': Selector(<cdutil.region.DomainComponent instance at 0x7f579490cbd8>), 'id': '90S50S', 'value': None}
 OBS SHAPE IS  (12, 1, 17, 144)
 zg   DECKv1b_A1_1981-2005   (12, 1, 17, 144)   (12, 1, 17, 144)    default
 REGION: {'domain': Selector(<cdutil.region.DomainComponent instance at 0x7f579490ce60>), 'id': '50S20S', 'value': None}
 OBS SHAPE IS  (12, 1, 13, 144)
 zg   DECKv1b_A1_1981-2005   (12, 1, 13, 144)   (12, 1, 13, 144)    default
 REGION: {'domain': Selector(<cdutil.region.DomainComponent instance at 0x7f5794914128>), 'id': '20S20N', 'value': None}
 OBS SHAPE IS  (12, 1, 17, 144)
 zg   DECKv1b_A1_1981-2005   (12, 1, 17, 144)   (12, 1, 17, 144)    default
 REGION: {'domain': Selector(<cdutil.region.DomainComponent instance at 0x7f57949143b0>), 'id': '20N50N', 'value': None}
 OBS SHAPE IS  (12, 1, 13, 144)
 zg   DECKv1b_A1_1981-2005   (12, 1, 13, 144)   (12, 1, 13, 144)    default
 REGION: {'domain': Selector(<cdutil.region.DomainComponent instance at 0x7f5794914638>), 'id': '50N90N', 'value': None}
 OBS SHAPE IS  (12, 1, 16, 144)
 zg   DECKv1b_A1_1981-2005   (12, 1, 16, 144)   (12, 1, 16, 144)    default
 parameter file ref is:  ['default']
 ref is:  ['default']
 REGION: {'id': 'ocean', 'value': 0}
 OBS SHAPE IS  (12, 72, 144)
 tauu   DECKv1b_A1_1981-2005   (12, 72, 144)   (12, 72, 144)    default
 REGION: {'domain': Selector(<cdutil.region.DomainComponent instance at 0x7f5794902ef0>), 'id': 'ocean_90S50S', 'value': 0.0}
 OBS SHAPE IS  (12, 17, 144)
 tauu   DECKv1b_A1_1981-2005   (12, 17, 144)   (12, 17, 144)    default
 REGION: {'domain': Selector(<cdutil.region.DomainComponent instance at 0x7f579490c1b8>), 'id': 'ocean_50S20S', 'value': 0.0}
 OBS SHAPE IS  (12, 13, 144)
 tauu   DECKv1b_A1_1981-2005   (12, 13, 144)   (12, 13, 144)    default
 REGION: {'domain': Selector(<cdutil.region.DomainComponent instance at 0x7f579490c440>), 'id': 'ocean_20S20N', 'value': 0.0}
 OBS SHAPE IS  (12, 17, 144)
 tauu   DECKv1b_A1_1981-2005   (12, 17, 144)   (12, 17, 144)    default
 REGION: {'domain': Selector(<cdutil.region.DomainComponent instance at 0x7f579490c6c8>), 'id': 'ocean_20N50N', 'value': 0.0}
 OBS SHAPE IS  (12, 13, 144)
 tauu   DECKv1b_A1_1981-2005   (12, 13, 144)   (12, 13, 144)    default
 REGION: {'domain': Selector(<cdutil.region.DomainComponent instance at 0x7f579490c950>), 'id': 'ocean_50N90N', 'value': 0.0}
 OBS SHAPE IS  (12, 16, 144)
 tauu   DECKv1b_A1_1981-2005   (12, 16, 144)   (12, 16, 144)    default
 parameter file ref is:  ['default']
 ref is:  ['default']
 REGION: {'id': 'ocean', 'value': 0}
 OBS SHAPE IS  (12, 72, 144)
 tauv   DECKv1b_A1_1981-2005   (12, 72, 144)   (12, 72, 144)    default
 REGION: {'domain': Selector(<cdutil.region.DomainComponent instance at 0x7f5794902ef0>), 'id': 'ocean_90S50S', 'value': 0.0}
 OBS SHAPE IS  (12, 17, 144)
 tauv   DECKv1b_A1_1981-2005   (12, 17, 144)   (12, 17, 144)    default
 REGION: {'domain': Selector(<cdutil.region.DomainComponent instance at 0x7f579490c1b8>), 'id': 'ocean_50S20S', 'value': 0.0}
 OBS SHAPE IS  (12, 13, 144)
 tauv   DECKv1b_A1_1981-2005   (12, 13, 144)   (12, 13, 144)    default
 REGION: {'domain': Selector(<cdutil.region.DomainComponent instance at 0x7f579490c440>), 'id': 'ocean_20S20N', 'value': 0.0}
 OBS SHAPE IS  (12, 17, 144)
 tauv   DECKv1b_A1_1981-2005   (12, 17, 144)   (12, 17, 144)    default
 REGION: {'domain': Selector(<cdutil.region.DomainComponent instance at 0x7f579490c6c8>), 'id': 'ocean_20N50N', 'value': 0.0}
 OBS SHAPE IS  (12, 13, 144)
 tauv   DECKv1b_A1_1981-2005   (12, 13, 144)   (12, 13, 144)    default
 REGION: {'domain': Selector(<cdutil.region.DomainComponent instance at 0x7f579490c950>), 'id': 'ocean_50N90N', 'value': 0.0}
 OBS SHAPE IS  (12, 16, 144)
 tauv   DECKv1b_A1_1981-2005   (12, 16, 144)   (12, 16, 144)    default
 Done. Check log at: /scratch/tang30/PMP/20180316.DECKv1b_A1.ne30_oEC.edison/1981-2005/results/pmp/errors_log.txt
