{
    "DISCLAIMER": "USER-NOTICE: The results in this file were produced with the PMP v1.1 (https://github.com/PCMDI/pcmdi_metrics). They are for research purposes only. They are subject to ongoing quality control and change as the PMP software advances, interpolation methods are modified, observational data sets are updated, problems with model data are corrected, etc. Use of these results for research (presentation, publications, etc.) should reference: Gleckler, P. J., C. Doutriaux, P. J. Durack, K. E. Taylor, Y. Zhang, and D. N. Williams, E. Mason, and J. Servonnat (2016), A more powerful reality test for climate models, Eos, 97, doi:10.1029/2016EO051663. If any problems are uncovered in using these results please contact the PMP development team at pcmdi-metrics@llnl.gov\n",
    "RESULTS": {
        "DECKv1b_A1_1981-2005": {
            "SimulationDescription": {
                "ModellingGroup": "N/A",
                "ModelFreeSpace": "N/A",
                "MIPTable": "ERAINT",
                "creation_date": "N/A",
                "ModelActivity": "N/A",
                "Experiment": "N/A",
                "Realization": "r1i1p1",
                "Model": "DECKv1b_A1_1981-2005"
            },
            "defaultReference": {
                "source": "ERAINT",
                "r1i1p1": {
                    "20S20N": {
                        "bias_xy_ann": "-1.051",
                        "bias_xy_djf": "-0.982",
                        "bias_xy_jja": "-0.861",
                        "bias_xy_mam": "-1.085",
                        "bias_xy_son": "-1.257",
                        "cor_xy_ann": "0.941",
                        "cor_xy_djf": "0.95",
                        "cor_xy_jja": "0.95",
                        "cor_xy_mam": "0.92",
                        "cor_xy_son": "0.94",
                        "mae_xy_ann": "1.256",
                        "mae_xy_djf": "1.417",
                        "mae_xy_jja": "1.680",
                        "mae_xy_mam": "1.322",
                        "mae_xy_son": "1.447",
                        "rms_devzm_ann": "1.121",
                        "rms_xy_ann": "1.564",
                        "rms_xy_djf": "1.735",
                        "rms_xy_jja": "2.213",
                        "rms_xy_mam": "1.628",
                        "rms_xy_son": "1.705",
                        "rms_xyt_ann": "1.959",
                        "rms_y_ann": "1.113",
                        "std-obs_xy_ann": "2.886",
                        "std-obs_xy_devzm_ann": "2.805",
                        "std-obs_xy_djf": "3.460",
                        "std-obs_xy_jja": "4.873",
                        "std-obs_xy_mam": "2.768",
                        "std-obs_xy_son": "2.941",
                        "std-obs_xyt_ann": "3.803",
                        "std_xy_ann": "3.338",
                        "std_xy_devzm_ann": "3.289",
                        "std_xy_djf": "4.148",
                        "std_xy_jja": "6.071",
                        "std_xy_mam": "3.103",
                        "std_xy_son": "3.351",
                        "std_xyt_ann": "4.575"
                    },
                    "50N90N": {
                        "bias_xy_ann": "-0.228",
                        "bias_xy_djf": "-0.642",
                        "bias_xy_jja": "0.414",
                        "bias_xy_mam": "-0.437",
                        "bias_xy_son": "-0.266",
                        "cor_xy_ann": "0.910",
                        "cor_xy_djf": "0.93",
                        "cor_xy_jja": "0.74",
                        "cor_xy_mam": "0.86",
                        "cor_xy_son": "0.95",
                        "mae_xy_ann": "0.817",
                        "mae_xy_djf": "1.195",
                        "mae_xy_jja": "1.352",
                        "mae_xy_mam": "0.997",
                        "mae_xy_son": "0.707",
                        "rms_devzm_ann": "0.847",
                        "rms_xy_ann": "0.971",
                        "rms_xy_djf": "1.471",
                        "rms_xy_jja": "1.668",
                        "rms_xy_mam": "1.203",
                        "rms_xy_son": "0.850",
                        "rms_xyt_ann": "1.608",
                        "rms_y_ann": "0.477",
                        "std-obs_xy_ann": "2.248",
                        "std-obs_xy_devzm_ann": "1.901",
                        "std-obs_xy_djf": "3.364",
                        "std-obs_xy_jja": "1.546",
                        "std-obs_xy_mam": "2.121",
                        "std-obs_xy_son": "2.621",
                        "std-obs_xyt_ann": "2.640",
                        "std_xy_ann": "2.246",
                        "std_xy_devzm_ann": "1.591",
                        "std_xy_djf": "2.694",
                        "std_xy_jja": "2.372",
                        "std_xy_mam": "2.119",
                        "std_xy_son": "2.651",
                        "std_xyt_ann": "2.700"
                    },
                    "TROPICS": {
                        "bias_xy_ann": "-0.844",
                        "bias_xy_djf": "-0.763",
                        "bias_xy_jja": "-0.707",
                        "bias_xy_mam": "-0.838",
                        "bias_xy_son": "-1.049",
                        "cor_xy_ann": "0.950",
                        "cor_xy_djf": "0.95",
                        "cor_xy_jja": "0.95",
                        "cor_xy_mam": "0.94",
                        "cor_xy_son": "0.94",
                        "mae_xy_ann": "1.073",
                        "mae_xy_djf": "1.261",
                        "mae_xy_jja": "1.470",
                        "mae_xy_mam": "1.190",
                        "mae_xy_son": "1.281",
                        "rms_devzm_ann": "1.017",
                        "rms_xy_ann": "1.388",
                        "rms_xy_djf": "1.567",
                        "rms_xy_jja": "1.958",
                        "rms_xy_mam": "1.493",
                        "rms_xy_son": "1.554",
                        "rms_xyt_ann": "1.792",
                        "rms_y_ann": "0.953",
                        "std-obs_xy_ann": "2.901",
                        "std-obs_xy_devzm_ann": "2.526",
                        "std-obs_xy_djf": "3.477",
                        "std-obs_xy_jja": "4.514",
                        "std-obs_xy_mam": "2.972",
                        "std-obs_xy_son": "2.870",
                        "std-obs_xyt_ann": "3.688",
                        "std_xy_ann": "3.388",
                        "std_xy_devzm_ann": "2.921",
                        "std_xy_djf": "4.200",
                        "std_xy_jja": "5.575",
                        "std_xy_mam": "3.495",
                        "std_xy_son": "3.367",
                        "std_xyt_ann": "4.473"
                    },
                    "global": {
                        "bias_xy_ann": "-0.049",
                        "bias_xy_djf": "-0.167",
                        "bias_xy_jja": "0.126",
                        "bias_xy_mam": "0.013",
                        "bias_xy_son": "-0.164",
                        "cor_xy_ann": "0.986",
                        "cor_xy_djf": "0.98",
                        "cor_xy_jja": "0.98",
                        "cor_xy_mam": "0.98",
                        "cor_xy_son": "0.99",
                        "mae_xy_ann": "1.088",
                        "mae_xy_djf": "1.284",
                        "mae_xy_jja": "1.456",
                        "mae_xy_mam": "1.269",
                        "mae_xy_son": "1.185",
                        "rms_devzm_ann": "0.927",
                        "rms_xy_ann": "1.352",
                        "rms_xy_djf": "1.584",
                        "rms_xy_jja": "1.839",
                        "rms_xy_mam": "1.558",
                        "rms_xy_son": "1.432",
                        "rms_xyt_ann": "1.777",
                        "rms_y_ann": "1.215",
                        "std-obs_xy_ann": "5.378",
                        "std-obs_xy_devzm_ann": "2.469",
                        "std-obs_xy_djf": "5.812",
                        "std-obs_xy_jja": "5.793",
                        "std-obs_xy_mam": "5.379",
                        "std-obs_xy_son": "5.570",
                        "std-obs_xyt_ann": "5.722",
                        "std_xy_ann": "6.390",
                        "std_xy_devzm_ann": "2.535",
                        "std_xy_djf": "6.765",
                        "std_xy_jja": "7.063",
                        "std_xy_mam": "6.528",
                        "std_xy_son": "6.650",
                        "std_xyt_ann": "6.868"
                    },
                    "50S20S": {
                        "bias_xy_ann": "0.750",
                        "bias_xy_djf": "0.701",
                        "bias_xy_jja": "0.938",
                        "bias_xy_mam": "0.428",
                        "bias_xy_son": "0.940",
                        "cor_xy_ann": "0.992",
                        "cor_xy_djf": "0.99",
                        "cor_xy_jja": "0.99",
                        "cor_xy_mam": "0.99",
                        "cor_xy_son": "0.99",
                        "mae_xy_ann": "1.103",
                        "mae_xy_djf": "1.275",
                        "mae_xy_jja": "1.275",
                        "mae_xy_mam": "1.035",
                        "mae_xy_son": "1.239",
                        "rms_devzm_ann": "0.596",
                        "rms_xy_ann": "1.332",
                        "rms_xy_djf": "1.578",
                        "rms_xy_jja": "1.480",
                        "rms_xy_mam": "1.252",
                        "rms_xy_son": "1.470",
                        "rms_xyt_ann": "1.585",
                        "rms_y_ann": "1.231",
                        "std-obs_xy_ann": "5.476",
                        "std-obs_xy_devzm_ann": "1.942",
                        "std-obs_xy_djf": "6.089",
                        "std-obs_xy_jja": "5.261",
                        "std-obs_xy_mam": "5.517",
                        "std-obs_xy_son": "5.383",
                        "std-obs_xyt_ann": "5.698",
                        "std_xy_ann": "6.313",
                        "std_xy_devzm_ann": "1.781",
                        "std_xy_djf": "7.206",
                        "std_xy_jja": "5.931",
                        "std_xy_mam": "6.470",
                        "std_xy_son": "6.123",
                        "std_xyt_ann": "6.620"
                    },
                    "90S50S": {
                        "bias_xy_ann": "0.971",
                        "bias_xy_djf": "-0.122",
                        "bias_xy_jja": "1.607",
                        "bias_xy_mam": "1.509",
                        "bias_xy_son": "0.894",
                        "cor_xy_ann": "0.991",
                        "cor_xy_djf": "0.99",
                        "cor_xy_jja": "0.99",
                        "cor_xy_mam": "0.99",
                        "cor_xy_son": "0.99",
                        "mae_xy_ann": "1.081",
                        "mae_xy_djf": "0.945",
                        "mae_xy_jja": "1.664",
                        "mae_xy_mam": "1.626",
                        "mae_xy_son": "1.004",
                        "rms_devzm_ann": "1.027",
                        "rms_xy_ann": "1.298",
                        "rms_xy_djf": "1.154",
                        "rms_xy_jja": "1.880",
                        "rms_xy_mam": "1.863",
                        "rms_xy_son": "1.172",
                        "rms_xyt_ann": "1.718",
                        "rms_y_ann": "1.739",
                        "std-obs_xy_ann": "6.525",
                        "std-obs_xy_devzm_ann": "2.973",
                        "std-obs_xy_djf": "6.455",
                        "std-obs_xy_jja": "6.404",
                        "std-obs_xy_mam": "6.640",
                        "std-obs_xy_son": "6.851",
                        "std-obs_xyt_ann": "6.648",
                        "std_xy_ann": "5.911",
                        "std_xy_devzm_ann": "2.188",
                        "std_xy_djf": "6.261",
                        "std_xy_jja": "5.465",
                        "std_xy_mam": "6.036",
                        "std_xy_son": "5.804",
                        "std_xyt_ann": "6.089"
                    },
                    "20N50N": {
                        "bias_xy_ann": "0.432",
                        "bias_xy_djf": "0.570",
                        "bias_xy_jja": "0.063",
                        "bias_xy_mam": "1.011",
                        "bias_xy_son": "0.080",
                        "cor_xy_ann": "0.974",
                        "cor_xy_djf": "0.95",
                        "cor_xy_jja": "0.95",
                        "cor_xy_mam": "0.95",
                        "cor_xy_son": "0.98",
                        "mae_xy_ann": "0.940",
                        "mae_xy_djf": "1.284",
                        "mae_xy_jja": "1.219",
                        "mae_xy_mam": "1.417",
                        "mae_xy_son": "1.039",
                        "rms_devzm_ann": "0.836",
                        "rms_xy_ann": "1.181",
                        "rms_xy_djf": "1.562",
                        "rms_xy_jja": "1.518",
                        "rms_xy_mam": "1.742",
                        "rms_xy_son": "1.244",
                        "rms_xyt_ann": "1.762",
                        "rms_y_ann": "1.218",
                        "std-obs_xy_ann": "3.393",
                        "std-obs_xy_devzm_ann": "2.328",
                        "std-obs_xy_djf": "4.145",
                        "std-obs_xy_jja": "3.560",
                        "std-obs_xy_mam": "3.131",
                        "std-obs_xy_son": "3.654",
                        "std-obs_xyt_ann": "3.899",
                        "std_xy_ann": "4.194",
                        "std_xy_devzm_ann": "2.324",
                        "std_xy_djf": "4.655",
                        "std_xy_jja": "4.535",
                        "std_xy_mam": "4.102",
                        "std_xy_son": "4.763",
                        "std_xyt_ann": "4.923"
                    },
                    "NHEX": {
                        "bias_xy_ann": "0.400",
                        "bias_xy_djf": "0.142",
                        "bias_xy_jja": "0.556",
                        "bias_xy_mam": "0.601",
                        "bias_xy_son": "0.288",
                        "cor_xy_ann": "0.931",
                        "cor_xy_djf": "0.91",
                        "cor_xy_jja": "0.85",
                        "cor_xy_mam": "0.90",
                        "cor_xy_son": "0.95",
                        "mae_xy_ann": "0.939",
                        "mae_xy_djf": "1.323",
                        "mae_xy_jja": "1.314",
                        "mae_xy_mam": "1.344",
                        "mae_xy_son": "0.834",
                        "rms_devzm_ann": "0.857",
                        "rms_xy_ann": "1.149",
                        "rms_xy_djf": "1.616",
                        "rms_xy_jja": "1.639",
                        "rms_xy_mam": "1.645",
                        "rms_xy_son": "1.009",
                        "rms_xyt_ann": "1.755",
                        "rms_y_ann": "0.933",
                        "std-obs_xy_ann": "2.582",
                        "std-obs_xy_devzm_ann": "2.242",
                        "std-obs_xy_djf": "3.733",
                        "std-obs_xy_jja": "2.263",
                        "std-obs_xy_mam": "2.600",
                        "std-obs_xy_son": "2.702",
                        "std-obs_xyt_ann": "3.075",
                        "std_xy_ann": "2.924",
                        "std_xy_devzm_ann": "2.051",
                        "std_xy_djf": "3.828",
                        "std_xy_jja": "2.926",
                        "std_xy_mam": "3.390",
                        "std_xy_son": "3.056",
                        "std_xyt_ann": "3.571"
                    },
                    "SHEX": {
                        "bias_xy_ann": "1.198",
                        "bias_xy_djf": "0.795",
                        "bias_xy_jja": "1.478",
                        "bias_xy_mam": "1.246",
                        "bias_xy_son": "1.280",
                        "cor_xy_ann": "0.988",
                        "cor_xy_djf": "0.98",
                        "cor_xy_jja": "0.98",
                        "cor_xy_mam": "0.99",
                        "cor_xy_son": "0.99",
                        "mae_xy_ann": "1.271",
                        "mae_xy_djf": "1.297",
                        "mae_xy_jja": "1.572",
                        "mae_xy_mam": "1.364",
                        "mae_xy_son": "1.333",
                        "rms_devzm_ann": "0.783",
                        "rms_xy_ann": "1.458",
                        "rms_xy_djf": "1.588",
                        "rms_xy_jja": "1.765",
                        "rms_xy_mam": "1.602",
                        "rms_xy_son": "1.520",
                        "rms_xyt_ann": "1.765",
                        "rms_y_ann": "1.615",
                        "std-obs_xy_ann": "5.421",
                        "std-obs_xy_devzm_ann": "2.570",
                        "std-obs_xy_djf": "5.736",
                        "std-obs_xy_jja": "5.336",
                        "std-obs_xy_mam": "5.505",
                        "std-obs_xy_son": "5.548",
                        "std-obs_xyt_ann": "5.612",
                        "std_xy_ann": "5.074",
                        "std_xy_devzm_ann": "2.040",
                        "std_xy_djf": "5.916",
                        "std_xy_jja": "4.609",
                        "std_xy_mam": "5.386",
                        "std_xy_son": "4.793",
                        "std_xyt_ann": "5.368"
                    }
                }
            },
            "InputRegionMD5": null,
            "InputClimatologyFileName": "ua.nc",
            "units": "N/A",
            "InputClimatologyMD5": "b9513654c5821e12db5db3d70091cef4",
            "InputRegionFileName": null
        }
    },
    "Variable": {
        "id": "ua",
        "level": 85000.0
    },
    "References": {
        "default": {
            "RefName": "ERAINT",
            "MD5sum": "dca2dc9e8d2650a93cc8400775964cad",
            "period": "",
            "filename": "ua_ERAINT_000001-000012_ac.nc",
            "shape": "(12, 17, 121, 240)",
            "CMIP_CMOR_TABLE": "ERAINT",
            "RefTrackingDate": "Tue Jul 12 18:12:29 2011"
        }
    },
    "RegionalMasking": {
        "20S20N": {
            "domain": {
                "20S20N": "cdutil.region.domain(latitude=(-20.0, 20, 'ccb'))"
            },
            "id": "20S20N",
            "value": null
        },
        "50N90N": {
            "domain": {
                "50N90N": "cdutil.region.domain(latitude=(50.0, 90, 'ccb'))"
            },
            "id": "50N90N",
            "value": null
        },
        "TROPICS": {
            "domain": {
                "TROPICS": "cdutil.region.domain(latitude=(-30.0, 30, 'ccb'))"
            },
            "id": "TROPICS"
        },
        "global": {
            "id": "global"
        },
        "50S20S": {
            "domain": {
                "50S20S": "cdutil.region.domain(latitude=(-50.0, -20, 'ccb'))"
            },
            "id": "50S20S",
            "value": null
        },
        "90S50S": {
            "domain": {
                "90S50S": "cdutil.region.domain(latitude=(-90.0, -50, 'ccb'))"
            },
            "id": "90S50S",
            "value": null
        },
        "20N50N": {
            "domain": {
                "20N50N": "cdutil.region.domain(latitude=(20.0, 50, 'ccb'))"
            },
            "id": "20N50N",
            "value": null
        },
        "NHEX": {
            "domain": {
                "NHEX": "cdutil.region.domain(latitude=(30.0, 90, 'ccb'))"
            },
            "id": "NHEX"
        },
        "SHEX": {
            "domain": {
                "SHEX": "cdutil.region.domain(latitude=(-90.0, -30, 'ccb'))"
            },
            "id": "SHEX"
        }
    },
    "GridInfo": {
        "GridResolution": [
            1,
            16,
            144
        ],
        "GridName": "2.5x2.5",
        "RegridMethod": "linear",
        "RegridTool": "esmf"
    },
    "METRICS": {
        "rms_xyt": {
            "Abstract": "Compute Spatial and Temporal Root Mean Square",
            "Contact": "pcmdi-metrics@llnl.gov",
            "Name": "Spatio-Temporal Root Mean Square",
            "URI": "http://uvcdat.llnl.gov/documentation/utilities/utilities-2.html"
        },
        "rms_xy": {
            "Abstract": "Compute Spatial Root Mean Square",
            "Contact": "pcmdi-metrics@llnl.gov",
            "Name": "Spatial Root Mean Square",
            "URI": "http://uvcdat.llnl.gov/documentation/utilities/utilities-2.html"
        },
        "bias_xy": {
            "Abstract": "Compute Full Average of Model - Observation",
            "Contact": "pcmdi-metrics@llnl.gov",
            "Name": "Bias"
        },
        "mae_xy": {
            "Abstract": "Compute Full Average of Absolute Difference Between Model And Observation",
            "Contact": "pcmdi-metrics@llnl.gov",
            "Name": "Mean Absolute Error"
        },
        "cor_xy": {
            "Abstract": "Compute Spatial Correlation",
            "Contact": "pcmdi-metrics@llnl.gov",
            "Name": "Spatial Correlation",
            "URI": "http://uvcdat.llnl.gov/documentation/utilities/utilities-2.html"
        },
        "std_xy": {
            "Abstract": "Compute Spatial Standard Deviation",
            "Contact": "pcmdi-metrics@llnl.gov",
            "Name": "Spatial Standard Deviation",
            "URI": "http://uvcdat.llnl.gov/documentation/utilities/utilities-2.html"
        },
        "std_xyt": {
            "Abstract": "Compute Space-Time Standard Deviation",
            "Contact": "pcmdi-metrics@llnl.gov",
            "Name": "Spatial-temporal Standard Deviation",
            "URI": "http://uvcdat.llnl.gov/documentation/utilities/utilities-2.html"
        },
        "seasonal_mean": {
            "Abstract": "Compute Seasonal Mean",
            "Contact": "pcmdi-metrics@llnl.gov",
            "Name": "Seasonal Mean",
            "Comments": "Assumes input are 12 months climatology"
        },
        "annual_mean": {
            "Abstract": "Compute Annual Mean",
            "Contact": "pcmdi-metrics@llnl.gov",
            "Name": "Annual Mean",
            "Comments": "Assumes input are 12 months climatology",
            "URI": "http://uvcdat.llnl.gov/documentation/utilities/utilities-2.html"
        },
        "zonal_mean": {
            "Abstract": "Compute Zonal Mean",
            "Contact": "pcmdi-metrics@llnl.gov",
            "Name": "Zonal Mean",
            "Comments": "",
            "URI": "http://uvcdat.llnl.gov/documentation/utilities/utilities-2.html"
        }
    },
    "metrics_git_sha1": "b952bf37c72c3a2d0b27319daffd9f38e301c29f",
    "uvcdat_version": "v2.5.0-572-ga06818f"
}