{
    "DISCLAIMER": "USER-NOTICE: The results in this file were produced with the PMP v1.1 (https://github.com/PCMDI/pcmdi_metrics). They are for research purposes only. They are subject to ongoing quality control and change as the PMP software advances, interpolation methods are modified, observational data sets are updated, problems with model data are corrected, etc. Use of these results for research (presentation, publications, etc.) should reference: Gleckler, P. J., C. Doutriaux, P. J. Durack, K. E. Taylor, Y. Zhang, and D. N. Williams, E. Mason, and J. Servonnat (2016), A more powerful reality test for climate models, Eos, 97, doi:10.1029/2016EO051663. If any problems are uncovered in using these results please contact the PMP development team at pcmdi-metrics@llnl.gov\n",
    "RESULTS": {
        "DECKv1b_H1_1981-2005": {
            "SimulationDescription": {
                "ModellingGroup": "N/A",
                "ModelFreeSpace": "N/A",
                "MIPTable": "CERES",
                "creation_date": "N/A",
                "ModelActivity": "N/A",
                "Experiment": "N/A",
                "Realization": "r1i1p1",
                "Model": "DECKv1b_H1_1981-2005"
            },
            "defaultReference": {
                "source": "CERES",
                "r1i1p1": {
                    "20S20N": {
                        "bias_xy_ann": "3.096",
                        "bias_xy_djf": "4.210",
                        "bias_xy_jja": "0.901",
                        "bias_xy_mam": "3.860",
                        "bias_xy_son": "3.402",
                        "cor_xy_ann": "0.893",
                        "cor_xy_djf": "0.92",
                        "cor_xy_jja": "0.87",
                        "cor_xy_mam": "0.71",
                        "cor_xy_son": "0.92",
                        "mae_xy_ann": "7.599",
                        "mae_xy_djf": "8.871",
                        "mae_xy_jja": "10.535",
                        "mae_xy_mam": "13.520",
                        "mae_xy_son": "7.794",
                        "rms_devzm_ann": "8.265",
                        "rms_xy_ann": "9.636",
                        "rms_xy_djf": "11.541",
                        "rms_xy_jja": "13.604",
                        "rms_xy_mam": "17.529",
                        "rms_xy_son": "10.277",
                        "rms_xyt_ann": "15.127",
                        "rms_y_ann": "4.784",
                        "std-obs_xy_ann": "20.215",
                        "std-obs_xy_devzm_ann": "17.666",
                        "std-obs_xy_djf": "26.115",
                        "std-obs_xy_jja": "27.200",
                        "std-obs_xy_mam": "21.643",
                        "std-obs_xy_son": "23.899",
                        "std-obs_xyt_ann": "26.121",
                        "std_xy_ann": "18.456",
                        "std_xy_devzm_ann": "16.917",
                        "std_xy_djf": "26.160",
                        "std_xy_jja": "26.037",
                        "std_xy_mam": "23.320",
                        "std_xy_son": "24.199",
                        "std_xyt_ann": "26.547"
                    },
                    "land": {
                        "bias_xy_ann": "-1.575",
                        "bias_xy_djf": "-0.256",
                        "bias_xy_jja": "-2.416",
                        "bias_xy_mam": "-3.204",
                        "bias_xy_son": "-0.598",
                        "cor_xy_ann": "0.982",
                        "cor_xy_djf": "0.98",
                        "cor_xy_jja": "0.97",
                        "cor_xy_mam": "0.96",
                        "cor_xy_son": "0.98",
                        "mae_xy_ann": "5.565",
                        "mae_xy_djf": "5.289",
                        "mae_xy_jja": "8.535",
                        "mae_xy_mam": "8.968",
                        "mae_xy_son": "5.174",
                        "rms_devzm_ann": "4.909",
                        "rms_xy_ann": "6.923",
                        "rms_xy_djf": "7.932",
                        "rms_xy_jja": "10.467",
                        "rms_xy_mam": "11.592",
                        "rms_xy_son": "7.208",
                        "rms_xyt_ann": "10.681",
                        "rms_y_ann": "4.360",
                        "std-obs_xy_ann": "35.108",
                        "std-obs_xy_devzm_ann": "12.762",
                        "std-obs_xy_djf": "37.392",
                        "std-obs_xy_jja": "43.526",
                        "std-obs_xy_mam": "37.707",
                        "std-obs_xy_son": "37.593",
                        "std-obs_xyt_ann": "41.027",
                        "std_xy_ann": "35.255",
                        "std_xy_devzm_ann": "12.955",
                        "std_xy_djf": "37.632",
                        "std_xy_jja": "42.329",
                        "std_xy_mam": "38.395",
                        "std_xy_son": "38.359",
                        "std_xyt_ann": "40.992"
                    },
                    "50N90N": {
                        "bias_xy_ann": "-5.964",
                        "bias_xy_djf": "-2.952",
                        "bias_xy_jja": "-9.223",
                        "bias_xy_mam": "-8.064",
                        "bias_xy_son": "-3.944",
                        "cor_xy_ann": "0.980",
                        "cor_xy_djf": "0.97",
                        "cor_xy_jja": "0.94",
                        "cor_xy_mam": "0.97",
                        "cor_xy_son": "0.97",
                        "mae_xy_ann": "5.974",
                        "mae_xy_djf": "3.504",
                        "mae_xy_jja": "9.223",
                        "mae_xy_mam": "8.067",
                        "mae_xy_son": "4.157",
                        "rms_devzm_ann": "1.866",
                        "rms_xy_ann": "6.281",
                        "rms_xy_djf": "4.630",
                        "rms_xy_jja": "9.611",
                        "rms_xy_mam": "8.418",
                        "rms_xy_son": "4.940",
                        "rms_xyt_ann": "7.577",
                        "rms_y_ann": "5.612",
                        "std-obs_xy_ann": "9.412",
                        "std-obs_xy_devzm_ann": "5.846",
                        "std-obs_xy_djf": "12.958",
                        "std-obs_xy_jja": "7.223",
                        "std-obs_xy_mam": "9.952",
                        "std-obs_xy_son": "11.143",
                        "std-obs_xyt_ann": "21.997",
                        "std_xy_ann": "8.672",
                        "std_xy_devzm_ann": "5.245",
                        "std_xy_djf": "10.929",
                        "std_xy_jja": "7.630",
                        "std_xy_mam": "8.883",
                        "std_xy_son": "9.605",
                        "std_xyt_ann": "19.231"
                    },
                    "TROPICS": {
                        "bias_xy_ann": "1.520",
                        "bias_xy_djf": "2.382",
                        "bias_xy_jja": "-0.236",
                        "bias_xy_mam": "2.216",
                        "bias_xy_son": "1.712",
                        "cor_xy_ann": "0.895",
                        "cor_xy_djf": "0.91",
                        "cor_xy_jja": "0.88",
                        "cor_xy_mam": "0.73",
                        "cor_xy_son": "0.92",
                        "mae_xy_ann": "6.442",
                        "mae_xy_djf": "7.504",
                        "mae_xy_jja": "9.534",
                        "mae_xy_mam": "11.032",
                        "mae_xy_son": "6.743",
                        "rms_devzm_ann": "7.292",
                        "rms_xy_ann": "8.458",
                        "rms_xy_djf": "10.088",
                        "rms_xy_jja": "12.490",
                        "rms_xy_mam": "15.054",
                        "rms_xy_son": "9.109",
                        "rms_xyt_ann": "13.415",
                        "rms_y_ann": "4.270",
                        "std-obs_xy_ann": "18.674",
                        "std-obs_xy_devzm_ann": "16.054",
                        "std-obs_xy_djf": "23.243",
                        "std-obs_xy_jja": "25.833",
                        "std-obs_xy_mam": "19.942",
                        "std-obs_xy_son": "21.783",
                        "std-obs_xyt_ann": "24.016",
                        "std_xy_ann": "17.031",
                        "std_xy_devzm_ann": "15.527",
                        "std_xy_djf": "23.326",
                        "std_xy_jja": "24.480",
                        "std_xy_mam": "20.610",
                        "std_xy_son": "21.753",
                        "std_xyt_ann": "24.029"
                    },
                    "global": {
                        "bias_xy_ann": "-1.114",
                        "bias_xy_djf": "0.185",
                        "bias_xy_jja": "-2.821",
                        "bias_xy_mam": "-1.141",
                        "bias_xy_son": "-0.717",
                        "cor_xy_ann": "0.973",
                        "cor_xy_djf": "0.97",
                        "cor_xy_jja": "0.96",
                        "cor_xy_mam": "0.94",
                        "cor_xy_son": "0.97",
                        "mae_xy_ann": "5.498",
                        "mae_xy_djf": "5.679",
                        "mae_xy_jja": "8.169",
                        "mae_xy_mam": "8.238",
                        "mae_xy_son": "5.303",
                        "rms_devzm_ann": "5.475",
                        "rms_xy_ann": "7.071",
                        "rms_xy_djf": "7.971",
                        "rms_xy_jja": "10.451",
                        "rms_xy_mam": "11.642",
                        "rms_xy_son": "7.282",
                        "rms_xyt_ann": "10.602",
                        "rms_y_ann": "4.440",
                        "std-obs_xy_ann": "29.604",
                        "std-obs_xy_devzm_ann": "12.839",
                        "std-obs_xy_djf": "32.594",
                        "std-obs_xy_jja": "35.277",
                        "std-obs_xy_mam": "30.782",
                        "std-obs_xy_son": "31.261",
                        "std-obs_xyt_ann": "33.390",
                        "std_xy_ann": "30.524",
                        "std_xy_devzm_ann": "12.396",
                        "std_xy_djf": "34.307",
                        "std_xy_jja": "34.771",
                        "std_xy_mam": "33.235",
                        "std_xy_son": "32.467",
                        "std_xyt_ann": "34.545"
                    },
                    "50S20S": {
                        "bias_xy_ann": "-2.054",
                        "bias_xy_djf": "0.622",
                        "bias_xy_jja": "-5.596",
                        "bias_xy_mam": "-0.576",
                        "bias_xy_son": "-2.544",
                        "cor_xy_ann": "0.982",
                        "cor_xy_djf": "0.97",
                        "cor_xy_jja": "0.98",
                        "cor_xy_mam": "0.97",
                        "cor_xy_son": "0.98",
                        "mae_xy_ann": "3.307",
                        "mae_xy_djf": "3.318",
                        "mae_xy_jja": "6.487",
                        "mae_xy_mam": "3.232",
                        "mae_xy_son": "3.953",
                        "rms_devzm_ann": "3.608",
                        "rms_xy_ann": "4.205",
                        "rms_xy_djf": "4.308",
                        "rms_xy_jja": "7.593",
                        "rms_xy_mam": "4.248",
                        "rms_xy_son": "4.976",
                        "rms_xyt_ann": "6.063",
                        "rms_y_ann": "2.179",
                        "std-obs_xy_ann": "18.868",
                        "std-obs_xy_devzm_ann": "8.344",
                        "std-obs_xy_djf": "16.759",
                        "std-obs_xy_jja": "23.286",
                        "std-obs_xy_mam": "18.227",
                        "std-obs_xy_son": "19.874",
                        "std-obs_xyt_ann": "20.436",
                        "std_xy_ann": "19.252",
                        "std_xy_devzm_ann": "8.208",
                        "std_xy_djf": "18.002",
                        "std_xy_jja": "23.370",
                        "std_xy_mam": "18.460",
                        "std_xy_son": "20.389",
                        "std_xyt_ann": "21.553"
                    },
                    "90S50S": {
                        "bias_xy_ann": "-0.552",
                        "bias_xy_djf": "0.572",
                        "bias_xy_jja": "-0.065",
                        "bias_xy_mam": "-1.617",
                        "bias_xy_son": "-0.970",
                        "cor_xy_ann": "0.991",
                        "cor_xy_djf": "0.97",
                        "cor_xy_jja": "0.99",
                        "cor_xy_mam": "0.99",
                        "cor_xy_son": "0.99",
                        "mae_xy_ann": "2.882",
                        "mae_xy_djf": "2.692",
                        "mae_xy_jja": "4.132",
                        "mae_xy_mam": "3.539",
                        "mae_xy_son": "2.493",
                        "rms_devzm_ann": "2.388",
                        "rms_xy_ann": "3.637",
                        "rms_xy_djf": "3.337",
                        "rms_xy_jja": "5.354",
                        "rms_xy_mam": "4.199",
                        "rms_xy_son": "3.264",
                        "rms_xyt_ann": "4.357",
                        "rms_y_ann": "2.966",
                        "std-obs_xy_ann": "21.567",
                        "std-obs_xy_devzm_ann": "9.427",
                        "std-obs_xy_djf": "12.659",
                        "std-obs_xy_jja": "27.743",
                        "std-obs_xy_mam": "24.861",
                        "std-obs_xy_son": "21.519",
                        "std-obs_xyt_ann": "25.832",
                        "std_xy_ann": "19.214",
                        "std_xy_devzm_ann": "9.269",
                        "std_xy_djf": "10.703",
                        "std_xy_jja": "24.310",
                        "std_xy_mam": "22.392",
                        "std_xy_son": "20.298",
                        "std_xyt_ann": "23.972"
                    },
                    "ocean": {
                        "bias_xy_ann": "-0.952",
                        "bias_xy_djf": "0.339",
                        "bias_xy_jja": "-3.008",
                        "bias_xy_mam": "-0.346",
                        "bias_xy_son": "-0.779",
                        "cor_xy_ann": "0.967",
                        "cor_xy_djf": "0.97",
                        "cor_xy_jja": "0.95",
                        "cor_xy_mam": "0.92",
                        "cor_xy_son": "0.97",
                        "mae_xy_ann": "5.477",
                        "mae_xy_djf": "5.848",
                        "mae_xy_jja": "8.032",
                        "mae_xy_mam": "7.949",
                        "mae_xy_son": "5.366",
                        "rms_devzm_ann": "5.531",
                        "rms_xy_ann": "7.137",
                        "rms_xy_djf": "8.007",
                        "rms_xy_jja": "10.455",
                        "rms_xy_mam": "11.662",
                        "rms_xy_son": "7.331",
                        "rms_xyt_ann": "10.583",
                        "rms_y_ann": "4.884",
                        "std-obs_xy_ann": "26.658",
                        "std-obs_xy_devzm_ann": "11.533",
                        "std-obs_xy_djf": "28.542",
                        "std-obs_xy_jja": "31.440",
                        "std-obs_xy_mam": "26.978",
                        "std-obs_xy_son": "28.040",
                        "std-obs_xyt_ann": "29.419",
                        "std_xy_ann": "27.921",
                        "std_xy_devzm_ann": "11.064",
                        "std_xy_djf": "30.988",
                        "std_xy_jja": "31.287",
                        "std_xy_mam": "30.084",
                        "std_xy_son": "29.505",
                        "std_xyt_ann": "31.176"
                    },
                    "20N50N": {
                        "bias_xy_ann": "-4.600",
                        "bias_xy_djf": "-5.227",
                        "bias_xy_jja": "-4.041",
                        "bias_xy_mam": "-5.693",
                        "bias_xy_son": "-3.616",
                        "cor_xy_ann": "0.982",
                        "cor_xy_djf": "0.99",
                        "cor_xy_jja": "0.93",
                        "cor_xy_mam": "0.96",
                        "cor_xy_son": "0.97",
                        "mae_xy_ann": "5.481",
                        "mae_xy_djf": "5.739",
                        "mae_xy_jja": "7.681",
                        "mae_xy_mam": "7.409",
                        "mae_xy_son": "4.816",
                        "rms_devzm_ann": "3.619",
                        "rms_xy_ann": "6.267",
                        "rms_xy_djf": "6.949",
                        "rms_xy_jja": "9.602",
                        "rms_xy_mam": "8.763",
                        "rms_xy_son": "5.972",
                        "rms_xyt_ann": "9.062",
                        "rms_y_ann": "5.302",
                        "std-obs_xy_ann": "20.414",
                        "std-obs_xy_devzm_ann": "11.685",
                        "std-obs_xy_djf": "26.748",
                        "std-obs_xy_jja": "24.101",
                        "std-obs_xy_mam": "22.677",
                        "std-obs_xy_son": "19.568",
                        "std-obs_xyt_ann": "26.624",
                        "std_xy_ann": "21.894",
                        "std_xy_devzm_ann": "11.539",
                        "std_xy_djf": "27.411",
                        "std_xy_jja": "23.371",
                        "std_xy_mam": "24.335",
                        "std_xy_son": "20.875",
                        "std_xyt_ann": "27.502"
                    },
                    "NHEX": {
                        "bias_xy_ann": "-6.043",
                        "bias_xy_djf": "-4.555",
                        "bias_xy_jja": "-7.766",
                        "bias_xy_mam": "-7.828",
                        "bias_xy_son": "-4.318",
                        "cor_xy_ann": "0.992",
                        "cor_xy_djf": "0.98",
                        "cor_xy_jja": "0.97",
                        "cor_xy_mam": "0.98",
                        "cor_xy_son": "0.99",
                        "mae_xy_ann": "6.072",
                        "mae_xy_djf": "5.032",
                        "mae_xy_jja": "8.231",
                        "mae_xy_mam": "7.859",
                        "mae_xy_son": "4.578",
                        "rms_devzm_ann": "2.448",
                        "rms_xy_ann": "6.545",
                        "rms_xy_djf": "6.250",
                        "rms_xy_jja": "9.104",
                        "rms_xy_mam": "8.658",
                        "rms_xy_son": "5.460",
                        "rms_xyt_ann": "8.084",
                        "rms_y_ann": "5.787",
                        "std-obs_xy_ann": "19.684",
                        "std-obs_xy_devzm_ann": "9.043",
                        "std-obs_xy_djf": "22.177",
                        "std-obs_xy_jja": "20.495",
                        "std-obs_xy_mam": "17.760",
                        "std-obs_xy_son": "22.654",
                        "std-obs_xyt_ann": "27.494",
                        "std_xy_ann": "19.411",
                        "std_xy_devzm_ann": "8.732",
                        "std_xy_djf": "20.122",
                        "std_xy_jja": "20.868",
                        "std_xy_mam": "17.597",
                        "std_xy_son": "22.213",
                        "std_xyt_ann": "26.379"
                    },
                    "SHEX": {
                        "bias_xy_ann": "-1.454",
                        "bias_xy_djf": "0.531",
                        "bias_xy_jja": "-3.047",
                        "bias_xy_mam": "-1.169",
                        "bias_xy_son": "-1.976",
                        "cor_xy_ann": "0.993",
                        "cor_xy_djf": "0.99",
                        "cor_xy_jja": "0.99",
                        "cor_xy_mam": "0.99",
                        "cor_xy_son": "0.99",
                        "mae_xy_ann": "3.037",
                        "mae_xy_djf": "2.676",
                        "mae_xy_jja": "5.377",
                        "mae_xy_mam": "3.028",
                        "mae_xy_son": "3.147",
                        "rms_devzm_ann": "2.750",
                        "rms_xy_ann": "3.751",
                        "rms_xy_djf": "3.399",
                        "rms_xy_jja": "6.480",
                        "rms_xy_mam": "3.739",
                        "rms_xy_son": "4.045",
                        "rms_xyt_ann": "4.937",
                        "rms_y_ann": "2.752",
                        "std-obs_xy_ann": "28.241",
                        "std-obs_xy_devzm_ann": "7.881",
                        "std-obs_xy_djf": "22.542",
                        "std-obs_xy_jja": "33.462",
                        "std-obs_xy_mam": "30.392",
                        "std-obs_xy_son": "27.559",
                        "std-obs_xyt_ann": "30.446",
                        "std_xy_ann": "26.846",
                        "std_xy_devzm_ann": "7.498",
                        "std_xy_djf": "22.428",
                        "std_xy_jja": "29.905",
                        "std_xy_mam": "29.971",
                        "std_xy_son": "26.391",
                        "std_xyt_ann": "29.556"
                    }
                }
            },
            "InputRegionMD5": null,
            "InputClimatologyFileName": "rlut.nc",
            "units": "N/A",
            "InputClimatologyMD5": "1cc54d80c528426997f93541dba887e7",
            "InputRegionFileName": null
        }
    },
    "Variable": {
        "id": "rlut"
    },
    "References": {
        "default": {
            "RefName": "CERES",
            "MD5sum": "146eec5e8a734fedbbdd0909921530f2",
            "period": "",
            "filename": "rlut_CERES_000001-000012_ac.nc",
            "shape": "(12, 180, 360)",
            "CMIP_CMOR_TABLE": "CERES",
            "RefTrackingDate": "Wed Aug 31 17:45:45 2016"
        }
    },
    "RegionalMasking": {
        "20S20N": {
            "domain": {
                "20S20N": "cdutil.region.domain(latitude=(-20.0, 20, 'ccb'))"
            },
            "id": "20S20N",
            "value": null
        },
        "land": {
            "id": "land",
            "value": 100
        },
        "50N90N": {
            "domain": {
                "50N90N": "cdutil.region.domain(latitude=(50.0, 90, 'ccb'))"
            },
            "id": "50N90N",
            "value": null
        },
        "TROPICS": {
            "domain": {
                "TROPICS": "cdutil.region.domain(latitude=(-30.0, 30, 'ccb'))"
            },
            "id": "TROPICS"
        },
        "global": {
            "id": "global"
        },
        "50S20S": {
            "domain": {
                "50S20S": "cdutil.region.domain(latitude=(-50.0, -20, 'ccb'))"
            },
            "id": "50S20S",
            "value": null
        },
        "90S50S": {
            "domain": {
                "90S50S": "cdutil.region.domain(latitude=(-90.0, -50, 'ccb'))"
            },
            "id": "90S50S",
            "value": null
        },
        "ocean": {
            "id": "ocean",
            "value": 0
        },
        "20N50N": {
            "domain": {
                "20N50N": "cdutil.region.domain(latitude=(20.0, 50, 'ccb'))"
            },
            "id": "20N50N",
            "value": null
        },
        "NHEX": {
            "domain": {
                "NHEX": "cdutil.region.domain(latitude=(30.0, 90, 'ccb'))"
            },
            "id": "NHEX"
        },
        "SHEX": {
            "domain": {
                "SHEX": "cdutil.region.domain(latitude=(-90.0, -30, 'ccb'))"
            },
            "id": "SHEX"
        }
    },
    "GridInfo": {
        "GridResolution": [
            16,
            144
        ],
        "GridName": "2.5x2.5",
        "RegridMethod": "regrid2",
        "RegridTool": "regrid2"
    },
    "METRICS": {
        "rms_xyt": {
            "Abstract": "Compute Spatial and Temporal Root Mean Square",
            "Contact": "pcmdi-metrics@llnl.gov",
            "Name": "Spatio-Temporal Root Mean Square",
            "URI": "http://uvcdat.llnl.gov/documentation/utilities/utilities-2.html"
        },
        "rms_xy": {
            "Abstract": "Compute Spatial Root Mean Square",
            "Contact": "pcmdi-metrics@llnl.gov",
            "Name": "Spatial Root Mean Square",
            "URI": "http://uvcdat.llnl.gov/documentation/utilities/utilities-2.html"
        },
        "bias_xy": {
            "Abstract": "Compute Full Average of Model - Observation",
            "Contact": "pcmdi-metrics@llnl.gov",
            "Name": "Bias"
        },
        "mae_xy": {
            "Abstract": "Compute Full Average of Absolute Difference Between Model And Observation",
            "Contact": "pcmdi-metrics@llnl.gov",
            "Name": "Mean Absolute Error"
        },
        "cor_xy": {
            "Abstract": "Compute Spatial Correlation",
            "Contact": "pcmdi-metrics@llnl.gov",
            "Name": "Spatial Correlation",
            "URI": "http://uvcdat.llnl.gov/documentation/utilities/utilities-2.html"
        },
        "std_xy": {
            "Abstract": "Compute Spatial Standard Deviation",
            "Contact": "pcmdi-metrics@llnl.gov",
            "Name": "Spatial Standard Deviation",
            "URI": "http://uvcdat.llnl.gov/documentation/utilities/utilities-2.html"
        },
        "std_xyt": {
            "Abstract": "Compute Space-Time Standard Deviation",
            "Contact": "pcmdi-metrics@llnl.gov",
            "Name": "Spatial-temporal Standard Deviation",
            "URI": "http://uvcdat.llnl.gov/documentation/utilities/utilities-2.html"
        },
        "seasonal_mean": {
            "Abstract": "Compute Seasonal Mean",
            "Contact": "pcmdi-metrics@llnl.gov",
            "Name": "Seasonal Mean",
            "Comments": "Assumes input are 12 months climatology"
        },
        "annual_mean": {
            "Abstract": "Compute Annual Mean",
            "Contact": "pcmdi-metrics@llnl.gov",
            "Name": "Annual Mean",
            "Comments": "Assumes input are 12 months climatology",
            "URI": "http://uvcdat.llnl.gov/documentation/utilities/utilities-2.html"
        },
        "zonal_mean": {
            "Abstract": "Compute Zonal Mean",
            "Contact": "pcmdi-metrics@llnl.gov",
            "Name": "Zonal Mean",
            "Comments": "",
            "URI": "http://uvcdat.llnl.gov/documentation/utilities/utilities-2.html"
        }
    },
    "metrics_git_sha1": "b952bf37c72c3a2d0b27319daffd9f38e301c29f",
    "uvcdat_version": "v2.5.0-572-ga06818f"
}